0;98;7;1.00
2:126.16-149.45
0:102.16-125.32
1:170.16-193.32
3:130.16-153.32
33:159.16-182.32
69:143.16-166.32
70:173.16-196.32

1;67;8;1.00
2:126.16-143.69
0:102.16-119.69
1:170.16-187.69
3:130.16-147.69
33:159.16-176.69
69:143.16-160.69
70:173.16-190.69
6:115.16-132.72

2;56;5;1.00
8:194.16-211.31
38:209.16-226.31
35:284.16-301.31
36:226.16-243.31
5:124.16-141.33

3;72;3;1.00
67:119.16-140.30
51:144.16-165.41
52:134.16-155.41

4;69;4;0.99
67:119.16-139.12
51:144.16-164.12
52:134.16-154.12
22:119.16-139.12

5;54;19;1.00
2:126.16-142.46
0:102.16-118.46
1:170.16-186.46
3:130.16-146.46
33:159.16-175.46
69:143.16-159.46
70:173.16-189.46
6:115.16-131.63
34:187.16-203.34
45:105.16-121.45
8:194.16-210.32
38:209.16-225.32
35:284.16-300.32
36:226.16-242.32
5:124.16-140.34
67:119.16-135.34
51:144.16-160.34
52:134.16-150.34
22:119.16-135.34

6;36;20;1.00
2:126.16-138.16
0:102.16-114.16
1:170.16-182.16
3:130.16-142.16
33:159.16-171.16
69:143.16-155.16
70:173.16-185.16
6:115.16-127.16
34:187.16-199.16
45:105.16-117.16
8:194.16-206.16
38:209.16-221.16
35:284.16-296.16
36:226.16-238.16
5:124.16-136.16
67:119.16-131.16
51:144.16-156.16
52:134.16-146.16
22:119.16-131.16
53:124.16-136.16

7;35;22;1.00
51:136.16-146.40
52:126.16-136.40
2:126.16-137.51
0:102.16-113.51
1:170.16-181.51
3:130.16-141.51
33:159.16-170.51
69:143.16-154.51
70:173.16-184.51
6:115.16-126.51
34:187.16-198.51
45:105.16-116.51
8:194.16-205.51
38:209.16-220.51
35:284.16-295.51
36:226.16-237.51
5:124.16-135.51
67:119.16-130.51
51:144.16-154.41
52:134.16-144.41
22:119.16-130.51
53:124.16-134.42

8;88;3;0.98
8:212.16-235.4
36:245.16-269.4
38:227.16-251.4

9;43;10;1.00
0:127.16-139.77
1:195.16-207.77
3:155.16-167.77
6:141.16-153.77
33:184.16-196.77
69:168.16-180.77
70:198.16-210.77
8:212.16-223.74
36:245.16-257.74
38:227.16-239.74

10;37;11;1.00
0:127.16-139.40
1:195.16-207.40
3:155.16-167.40
6:141.16-153.40
33:184.16-196.40
69:168.16-180.40
70:198.16-210.40
8:212.16-223.37
36:245.16-257.37
38:227.16-239.37
34:178.16-190.45

11;33;13;1.00
0:127.16-138.34
1:195.16-206.34
3:155.16-166.34
6:141.16-152.34
33:184.16-195.34
69:168.16-179.34
70:198.16-209.34
8:212.16-222.34
36:245.16-256.34
38:227.16-238.34
34:178.16-189.41
51:171.16-181.40
53:182.16-192.40

12;101;7;1.00
34:143.16-168.49
38:148.16-173.49
8:120.16-146.49
35:211.16-236.49
36:153.16-178.49
45:126.16-150.49
38:164.16-188.36

13;96;10;1.00
34:143.16-167.56
38:148.16-172.56
8:120.16-145.56
35:211.16-235.56
36:153.16-177.56
45:126.16-149.56
38:164.16-187.56
8:137.16-160.56
35:227.16-250.56
36:169.16-192.56

14;67;11;1.00
34:159.16-177.16
34:143.16-162.16
38:148.16-167.16
8:120.16-140.16
35:211.16-230.16
36:153.16-172.16
45:126.16-144.16
38:164.16-182.16
8:137.16-155.16
35:227.16-245.16
36:169.16-187.16

15;66;12;1.00
34:159.16-176.32
34:143.16-161.43
38:148.16-166.43
8:120.16-139.43
35:211.16-229.43
36:153.16-171.43
45:126.16-143.43
38:164.16-181.41
8:137.16-154.41
35:227.16-244.41
36:169.16-186.41
45:141.16-158.34

16;42;14;1.00
34:159.16-168.49
34:143.16-153.48
38:148.16-158.48
8:120.16-131.48
35:211.16-221.48
36:153.16-163.48
45:126.16-135.48
38:164.16-173.49
8:137.16-146.49
35:227.16-236.49
36:169.16-178.49
45:141.16-150.49
38:194.16-203.36
38:179.16-188.36

17;37;27;1.00
34:159.16-167.56
34:143.16-152.56
38:148.16-157.56
8:120.16-129.56
35:211.16-220.56
36:153.16-162.56
45:126.16-134.56
38:164.16-172.56
8:137.16-145.56
35:227.16-235.56
36:169.16-177.56
45:141.16-149.56
38:194.16-202.56
38:179.16-187.56
33:139.16-147.55
69:123.16-131.54
70:153.16-161.54
35:191.16-199.56
8:180.16-188.56
35:270.16-278.56
36:212.16-220.56
8:166.16-174.56
35:256.16-264.56
36:198.16-206.56
8:152.16-160.56
35:242.16-250.56
36:184.16-192.56

18;65;3;0.97
2:154.16-175.4
45:156.16-178.4
67:133.16-155.4

19;620;2;1.00
48:164.12-287.21
48:168.12-291.21

20;600;3;1.00
48:164.12-283.21
48:168.12-287.21
48:172.12-291.21

21;580;4;1.00
48:164.12-279.21
48:168.12-283.21
48:172.12-287.21
48:176.12-291.21

22;560;5;1.00
48:164.12-275.21
48:168.12-279.21
48:172.12-283.21
48:176.12-287.21
48:180.12-291.21

23;540;6;1.00
48:164.12-271.21
48:168.12-275.21
48:172.12-279.21
48:176.12-283.21
48:180.12-287.21
48:184.12-291.21

24;520;7;1.00
48:164.12-267.21
48:168.12-271.21
48:172.12-275.21
48:176.12-279.21
48:180.12-283.21
48:184.12-287.21
48:188.12-291.21

25;500;8;1.00
48:164.12-263.21
48:168.12-267.21
48:172.12-271.21
48:176.12-275.21
48:180.12-279.21
48:184.12-283.21
48:188.12-287.21
48:192.12-291.21

26;480;9;1.00
48:164.12-259.21
48:168.12-263.21
48:172.12-267.21
48:176.12-271.21
48:180.12-275.21
48:184.12-279.21
48:188.12-283.21
48:192.12-287.21
48:196.12-291.21

27;460;10;1.00
48:164.12-255.21
48:168.12-259.21
48:172.12-263.21
48:176.12-267.21
48:180.12-271.21
48:184.12-275.21
48:188.12-279.21
48:192.12-283.21
48:196.12-287.21
48:200.12-291.21

28;440;11;1.00
48:164.12-251.21
48:168.12-255.21
48:172.12-259.21
48:176.12-263.21
48:180.12-267.21
48:184.12-271.21
48:188.12-275.21
48:192.12-279.21
48:196.12-283.21
48:200.12-287.21
48:204.12-291.21

29;420;12;1.00
48:164.12-247.21
48:168.12-251.21
48:172.12-255.21
48:176.12-259.21
48:180.12-263.21
48:184.12-267.21
48:188.12-271.21
48:192.12-275.21
48:196.12-279.21
48:200.12-283.21
48:204.12-287.21
48:208.12-291.21

30;400;13;1.00
48:164.12-243.21
48:168.12-247.21
48:172.12-251.21
48:176.12-255.21
48:180.12-259.21
48:184.12-263.21
48:188.12-267.21
48:192.12-271.21
48:196.12-275.21
48:200.12-279.21
48:204.12-283.21
48:208.12-287.21
48:212.12-291.21

31;380;14;1.00
48:164.12-239.21
48:168.12-243.21
48:172.12-247.21
48:176.12-251.21
48:180.12-255.21
48:184.12-259.21
48:188.12-263.21
48:192.12-267.21
48:196.12-271.21
48:200.12-275.21
48:204.12-279.21
48:208.12-283.21
48:212.12-287.21
48:216.12-291.21

32;360;15;1.00
48:164.12-235.21
48:168.12-239.21
48:172.12-243.21
48:176.12-247.21
48:180.12-251.21
48:184.12-255.21
48:188.12-259.21
48:192.12-263.21
48:196.12-267.21
48:200.12-271.21
48:204.12-275.21
48:208.12-279.21
48:212.12-283.21
48:216.12-287.21
48:220.12-291.21

33;340;16;1.00
48:164.12-231.21
48:168.12-235.21
48:172.12-239.21
48:176.12-243.21
48:180.12-247.21
48:184.12-251.21
48:188.12-255.21
48:192.12-259.21
48:196.12-263.21
48:200.12-267.21
48:204.12-271.21
48:208.12-275.21
48:212.12-279.21
48:216.12-283.21
48:220.12-287.21
48:224.12-291.21

34;320;17;1.00
48:164.12-227.21
48:168.12-231.21
48:172.12-235.21
48:176.12-239.21
48:180.12-243.21
48:184.12-247.21
48:188.12-251.21
48:192.12-255.21
48:196.12-259.21
48:200.12-263.21
48:204.12-267.21
48:208.12-271.21
48:212.12-275.21
48:216.12-279.21
48:220.12-283.21
48:224.12-287.21
48:228.12-291.21

35;300;18;1.00
48:164.12-223.21
48:168.12-227.21
48:172.12-231.21
48:176.12-235.21
48:180.12-239.21
48:184.12-243.21
48:188.12-247.21
48:192.12-251.21
48:196.12-255.21
48:200.12-259.21
48:204.12-263.21
48:208.12-267.21
48:212.12-271.21
48:216.12-275.21
48:220.12-279.21
48:224.12-283.21
48:228.12-287.21
48:232.12-291.21

36;280;19;1.00
48:164.12-219.21
48:168.12-223.21
48:172.12-227.21
48:176.12-231.21
48:180.12-235.21
48:184.12-239.21
48:188.12-243.21
48:192.12-247.21
48:196.12-251.21
48:200.12-255.21
48:204.12-259.21
48:208.12-263.21
48:212.12-267.21
48:216.12-271.21
48:220.12-275.21
48:224.12-279.21
48:228.12-283.21
48:232.12-287.21
48:236.12-291.21

37;260;20;1.00
48:164.12-215.21
48:168.12-219.21
48:172.12-223.21
48:176.12-227.21
48:180.12-231.21
48:184.12-235.21
48:188.12-239.21
48:192.12-243.21
48:196.12-247.21
48:200.12-251.21
48:204.12-255.21
48:208.12-259.21
48:212.12-263.21
48:216.12-267.21
48:220.12-271.21
48:224.12-275.21
48:228.12-279.21
48:232.12-283.21
48:236.12-287.21
48:240.12-291.21

38;240;21;1.00
48:164.12-211.21
48:168.12-215.21
48:172.12-219.21
48:176.12-223.21
48:180.12-227.21
48:184.12-231.21
48:188.12-235.21
48:192.12-239.21
48:196.12-243.21
48:200.12-247.21
48:204.12-251.21
48:208.12-255.21
48:212.12-259.21
48:216.12-263.21
48:220.12-267.21
48:224.12-271.21
48:228.12-275.21
48:232.12-279.21
48:236.12-283.21
48:240.12-287.21
48:244.12-291.21

39;220;22;1.00
48:164.12-207.21
48:168.12-211.21
48:172.12-215.21
48:176.12-219.21
48:180.12-223.21
48:184.12-227.21
48:188.12-231.21
48:192.12-235.21
48:196.12-239.21
48:200.12-243.21
48:204.12-247.21
48:208.12-251.21
48:212.12-255.21
48:216.12-259.21
48:220.12-263.21
48:224.12-267.21
48:228.12-271.21
48:232.12-275.21
48:236.12-279.21
48:240.12-283.21
48:244.12-287.21
48:248.12-291.21

40;200;23;1.00
48:164.12-203.21
48:168.12-207.21
48:172.12-211.21
48:176.12-215.21
48:180.12-219.21
48:184.12-223.21
48:188.12-227.21
48:192.12-231.21
48:196.12-235.21
48:200.12-239.21
48:204.12-243.21
48:208.12-247.21
48:212.12-251.21
48:216.12-255.21
48:220.12-259.21
48:224.12-263.21
48:228.12-267.21
48:232.12-271.21
48:236.12-275.21
48:240.12-279.21
48:244.12-283.21
48:248.12-287.21
48:252.12-291.21

41;189;2;1.00
48:256.12-296.4
63:77.12-116.4

42;180;25;1.00
48:164.12-199.21
48:168.12-203.21
48:172.12-207.21
48:176.12-211.21
48:180.12-215.21
48:184.12-219.21
48:188.12-223.21
48:192.12-227.21
48:196.12-231.21
48:200.12-235.21
48:204.12-239.21
48:208.12-243.21
48:212.12-247.21
48:216.12-251.21
48:220.12-255.21
48:224.12-259.21
48:228.12-263.21
48:232.12-267.21
48:236.12-271.21
48:240.12-275.21
48:244.12-279.21
48:248.12-283.21
48:252.12-287.21
48:256.12-291.21
63:77.12-112.21

43;160;27;1.00
48:164.12-195.21
48:168.12-199.21
48:172.12-203.21
48:176.12-207.21
48:180.12-211.21
48:184.12-215.21
48:188.12-219.21
48:192.12-223.21
48:196.12-227.21
48:200.12-231.21
48:204.12-235.21
48:208.12-239.21
48:212.12-243.21
48:216.12-247.21
48:220.12-251.21
48:224.12-255.21
48:228.12-259.21
48:232.12-263.21
48:236.12-267.21
48:240.12-271.21
48:244.12-275.21
48:248.12-279.21
48:252.12-283.21
48:256.12-287.21
63:77.12-108.21
48:260.12-291.21
63:81.12-112.21

44;140;29;1.00
48:164.12-191.21
48:168.12-195.21
48:172.12-199.21
48:176.12-203.21
48:180.12-207.21
48:184.12-211.21
48:188.12-215.21
48:192.12-219.21
48:196.12-223.21
48:200.12-227.21
48:204.12-231.21
48:208.12-235.21
48:212.12-239.21
48:216.12-243.21
48:220.12-247.21
48:224.12-251.21
48:228.12-255.21
48:232.12-259.21
48:236.12-263.21
48:240.12-267.21
48:244.12-271.21
48:248.12-275.21
48:252.12-279.21
48:256.12-283.21
63:77.12-104.21
48:260.12-287.21
63:81.12-108.21
48:264.12-291.21
63:85.12-112.21

45;120;31;1.00
48:164.12-187.21
48:168.12-191.21
48:172.12-195.21
48:176.12-199.21
48:180.12-203.21
48:184.12-207.21
48:188.12-211.21
48:192.12-215.21
48:196.12-219.21
48:200.12-223.21
48:204.12-227.21
48:208.12-231.21
48:212.12-235.21
48:216.12-239.21
48:220.12-243.21
48:224.12-247.21
48:228.12-251.21
48:232.12-255.21
48:236.12-259.21
48:240.12-263.21
48:244.12-267.21
48:248.12-271.21
48:252.12-275.21
48:256.12-279.21
63:77.12-100.21
48:260.12-283.21
63:81.12-104.21
48:264.12-287.21
63:85.12-108.21
48:268.12-291.21
63:89.12-112.21

46;100;33;1.00
48:164.12-183.21
48:168.12-187.21
48:172.12-191.21
48:176.12-195.21
48:180.12-199.21
48:184.12-203.21
48:188.12-207.21
48:192.12-211.21
48:196.12-215.21
48:200.12-219.21
48:204.12-223.21
48:208.12-227.21
48:212.12-231.21
48:216.12-235.21
48:220.12-239.21
48:224.12-243.21
48:228.12-247.21
48:232.12-251.21
48:236.12-255.21
48:240.12-259.21
48:244.12-263.21
48:248.12-267.21
48:252.12-271.21
48:256.12-275.21
63:77.12-96.21
48:260.12-279.21
63:81.12-100.21
48:264.12-283.21
63:85.12-104.21
48:268.12-287.21
63:89.12-108.21
48:272.12-291.21
63:93.12-112.21

47;80;35;1.00
48:164.12-179.21
48:168.12-183.21
48:172.12-187.21
48:176.12-191.21
48:180.12-195.21
48:184.12-199.21
48:188.12-203.21
48:192.12-207.21
48:196.12-211.21
48:200.12-215.21
48:204.12-219.21
48:208.12-223.21
48:212.12-227.21
48:216.12-231.21
48:220.12-235.21
48:224.12-239.21
48:228.12-243.21
48:232.12-247.21
48:236.12-251.21
48:240.12-255.21
48:244.12-259.21
48:248.12-263.21
48:252.12-267.21
48:256.12-271.21
63:77.12-92.21
48:260.12-275.21
63:81.12-96.21
48:264.12-279.21
63:85.12-100.21
48:268.12-283.21
63:89.12-104.21
48:272.12-287.21
63:93.12-108.21
48:276.12-291.21
63:97.12-112.21

48;60;37;1.00
48:164.12-175.21
48:168.12-179.21
48:172.12-183.21
48:176.12-187.21
48:180.12-191.21
48:184.12-195.21
48:188.12-199.21
48:192.12-203.21
48:196.12-207.21
48:200.12-211.21
48:204.12-215.21
48:208.12-219.21
48:212.12-223.21
48:216.12-227.21
48:220.12-231.21
48:224.12-235.21
48:228.12-239.21
48:232.12-243.21
48:236.12-247.21
48:240.12-251.21
48:244.12-255.21
48:248.12-259.21
48:252.12-263.21
48:256.12-267.21
63:77.12-88.21
48:260.12-271.21
63:81.12-92.21
48:264.12-275.21
63:85.12-96.21
48:268.12-279.21
63:89.12-100.21
48:272.12-283.21
63:93.12-104.21
48:276.12-287.21
63:97.12-108.21
48:280.12-291.21
63:101.12-112.21

49;40;39;1.00
48:164.12-171.21
48:168.12-175.21
48:172.12-179.21
48:176.12-183.21
48:180.12-187.21
48:184.12-191.21
48:188.12-195.21
48:192.12-199.21
48:196.12-203.21
48:200.12-207.21
48:204.12-211.21
48:208.12-215.21
48:212.12-219.21
48:216.12-223.21
48:220.12-227.21
48:224.12-231.21
48:228.12-235.21
48:232.12-239.21
48:236.12-243.21
48:240.12-247.21
48:244.12-251.21
48:248.12-255.21
48:252.12-259.21
48:256.12-263.21
63:77.12-84.21
48:260.12-267.21
63:81.12-88.21
48:264.12-271.21
63:85.12-92.21
48:268.12-275.21
63:89.12-96.21
48:272.12-279.21
63:93.12-100.21
48:276.12-283.21
63:97.12-104.21
48:280.12-287.21
63:101.12-108.21
48:284.12-291.21
63:105.12-112.21

50;54;2;1.00
10:44.16-61.25
10:47.16-64.25

51;45;3;1.00
10:44.16-58.25
10:47.16-61.25
10:50.16-64.25

52;36;4;1.00
10:44.16-55.25
10:47.16-58.25
10:50.16-61.25
10:53.16-64.25

53;44;2;1.00
29:63.12-74.21
29:66.12-77.21

54;33;3;1.00
29:63.12-71.21
29:66.12-74.21
29:69.12-77.21

55;184;2;0.99
51:131.12-180.12
52:121.12-170.12

56;44;3;1.00
51:131.12-139.45
52:121.12-129.45
53:112.12-120.35

57;39;4;1.00
51:124.12-131.41
51:131.12-138.40
52:121.12-128.40
53:112.12-119.45

58;44;2;1.00
7:240.12-249.45
7:249.12-258.43

59;256;3;0.99
0:88.12-149.4
1:158.12-217.4
3:118.12-177.4

60;133;4;1.00
0:88.12-119.69
1:158.12-187.69
3:118.12-147.69
6:103.12-132.72

61;120;5;1.00
0:88.12-118.46
1:158.12-186.46
3:118.12-146.46
6:103.12-131.63
5:112.12-140.34

62;73;6;1.00
0:88.12-104.41
1:158.12-172.41
3:118.12-132.41
6:103.12-117.41
5:112.12-126.41
8:108.12-122.42

63;41;7;1.00
2:121.12-129.46
0:88.12-98.34
1:158.12-166.35
3:118.12-126.35
6:103.12-111.34
5:112.12-120.34
8:108.12-116.34

64;36;10;1.00
1:151.12-158.41
6:96.12-103.41
5:105.12-112.41
2:121.12-128.41
0:88.12-96.45
1:158.12-165.45
3:118.12-125.45
6:103.12-110.45
5:112.12-119.45
8:108.12-115.45

65;67;2;0.97
51:169.12-187.4
53:180.12-198.4

66;42;12;1.00
0:125.12-138.34
1:193.12-206.34
3:153.12-166.34
6:139.12-152.34
33:182.12-195.34
69:166.12-179.34
70:196.12-209.34
8:210.12-222.34
38:225.12-238.34
34:176.12-189.41
51:169.12-181.40
53:180.12-192.40

67;43;5;0.95
2:161.12-175.4
5:144.12-159.4
45:163.12-178.4
52:159.12-173.4
67:140.12-155.4

68;38;17;0.97
0:125.12-137.12
1:193.12-205.12
3:153.12-165.12
6:139.12-151.12
33:182.12-194.12
69:166.12-178.12
70:196.12-208.12
8:210.12-221.12
38:225.12-236.12
34:176.12-188.12
51:169.12-180.12
53:180.12-191.12
2:161.12-172.12
5:144.12-156.12
45:163.12-175.12
52:159.12-170.12
67:140.12-152.12

69;138;5;1.00
33:141.12-175.46
69:125.12-159.46
70:155.12-189.46
67:101.12-135.34
22:101.12-135.34

70;426;2;1.00
35:193.12-301.37
36:135.12-243.37

71;239;3;1.00
38:130.12-187.56
35:193.12-250.56
36:135.12-192.56

72;210;4;1.00
34:125.12-177.16
38:130.12-182.16
35:193.12-245.16
36:135.12-187.16

73;91;9;1.00
33:141.12-161.41
69:125.12-145.41
70:155.12-175.41
67:101.12-121.41
22:101.12-121.41
34:125.12-145.42
38:130.12-150.42
35:193.12-213.42
36:135.12-155.42

74;59;10;1.00
45:94.12-108.46
33:141.12-155.34
69:125.12-139.35
70:155.12-169.34
67:101.12-115.34
22:101.12-115.34
34:125.12-139.34
38:130.12-144.35
35:193.12-207.34
36:135.12-149.35

75;54;14;1.00
45:94.12-107.41
33:141.12-154.45
69:125.12-138.45
70:155.12-168.45
67:101.12-114.45
22:101.12-114.45
34:125.12-138.45
38:130.12-143.45
35:193.12-206.45
36:135.12-148.45
33:128.12-141.41
69:112.12-125.41
70:142.12-155.41
35:180.12-193.41

76;36;23;1.00
45:94.12-101.37
33:141.12-148.36
69:125.12-132.36
70:155.12-162.36
67:101.12-108.37
22:101.12-108.37
34:125.12-132.37
38:130.12-137.37
35:193.12-200.36
36:135.12-142.37
33:128.12-135.37
69:112.12-119.37
70:142.12-149.37
35:180.12-187.37
8:182.12-189.31
35:272.12-279.31
36:214.12-221.31
8:168.12-175.31
35:258.12-265.31
36:200.12-207.31
8:154.12-161.31
35:244.12-251.31
36:186.12-193.31

77;34;37;1.00
34:161.12-167.56
34:145.12-152.56
38:150.12-157.56
8:122.12-129.56
35:213.12-220.56
36:155.12-162.56
45:128.12-134.56
38:166.12-172.56
8:139.12-145.56
35:229.12-235.56
36:171.12-177.56
45:143.12-149.56
38:196.12-202.56
38:181.12-187.56
45:94.12-100.56
33:141.12-147.55
69:125.12-131.54
70:155.12-161.54
67:101.12-107.62
22:101.12-107.56
34:125.12-131.56
38:130.12-136.56
35:193.12-199.56
36:135.12-141.56
33:128.12-134.55
69:112.12-118.54
70:142.12-148.54
35:180.12-186.56
8:182.12-188.56
35:272.12-278.56
36:214.12-220.56
8:168.12-174.56
35:258.12-264.56
36:200.12-206.56
8:154.12-160.56
35:244.12-250.56
36:186.12-192.56

78;71;2;1.00
23:172.12-185.30
23:168.12-181.29

79;49;3;1.00
23:176.12-185.30
23:172.12-181.29
23:168.12-177.26

80;35;2;1.00
48:322.12-328.31
48:310.12-316.31

81;33;2;0.94
8:267.12-273.20
24:82.12-88.20

82;32;3;0.94
24:73.12-79.8
8:267.12-273.8
24:82.12-88.8

83;41;3;1.00
67:167.8-169.33
67:172.8-174.33
67:177.8-179.33

84;119;2;0.53
5:181.8-192.47
5:174.8-185.47

85;43;2;1.00
32:92.8-93.111
51:206.8-208.48

86;56;2;0.96
30:79.12-84.34
30:55.12-60.24

87;35;11;1.00
53:140.20-150.46
34:153.20-162.40
38:158.20-167.40
8:131.20-140.40
35:221.20-230.40
36:163.20-172.40
45:135.20-144.40
38:173.20-182.40
8:146.20-155.40
35:236.20-245.40
36:178.20-187.40

88;30;12;1.00
34:168.20-177.16
53:140.20-150.16
34:153.20-162.16
38:158.20-167.16
8:131.20-140.16
35:221.20-230.16
36:163.20-172.16
45:135.20-144.16
38:173.20-182.16
8:146.20-155.16
35:236.20-245.16
36:178.20-187.16

89;30;2;1.00
10:127.8-133.8
10:129.13-135.8

90;57;2;0.98
44:55.12-59.12
44:57.19-61.12

91;34;2;1.00
3:200.25-205.12
30:45.65-51.12

92;33;3;1.00
68:51.25-55.40
3:200.25-204.40
30:45.65-49.42

93;32;2;1.00
54:153.30-154.47
6:189.23-193.47

94;37;2;1.00
68:51.4-55.40
3:200.4-204.40

95;56;2;0.96
51:198.4-207.45
52:184.4-193.45

96;56;2;1.00
35:351.4-357.59
24:68.4-73.60

97;53;3;1.00
34:255.4-260.55
35:351.4-357.54
24:68.4-73.54

98;74;2;0.97
8:261.4-270.32
50:92.4-101.32

99;44;5;1.00
34:255.4-260.25
35:351.4-357.24
24:68.4-73.24
8:261.4-266.25
50:92.4-97.25

100;43;6;1.00
34:255.4-260.23
35:351.4-357.22
24:68.4-73.22
8:261.4-266.23
50:92.4-97.23
36:283.4-288.23

101;40;7;1.00
34:255.4-259.40
35:351.4-355.40
24:68.4-72.40
8:261.4-265.40
50:92.4-96.40
36:283.4-287.40
32:88.4-92.40

102;52;2;1.00
60:52.4-59.25
59:54.4-61.29

103;42;3;1.00
62:52.4-57.20
60:52.4-57.21
59:54.4-59.19

104;40;2;1.00
56:52.4-56.114
57:52.4-56.112

105;38;5;1.00
62:52.4-56.106
60:52.4-56.98
59:54.4-58.100
56:52.4-56.104
57:52.4-56.104

106;39;2;1.00
55:48.4-53.98
58:52.4-57.98

107;37;3;1.00
61:54.4-59.92
55:48.4-53.88
58:52.4-57.88

108;71;2;1.00
44:138.4-146.64
44:97.4-105.62

109;45;3;1.00
39:127.4-132.40
44:138.4-143.40
44:97.4-102.32

110;42;4;1.00
44:160.4-165.36
39:127.4-132.36
44:138.4-143.36
44:97.4-102.28

111;135;3;0.72
32:113.4-123.4
51:257.4-267.4
52:246.4-256.4

112;43;4;0.70
27:56.4-59.67
32:113.4-117.63
51:257.4-261.63
52:246.4-250.63

113;36;5;1.00
27:56.4-59.42
32:113.4-117.32
51:257.4-261.32
52:246.4-250.32
43:90.4-93.42

114;48;3;1.00
54:115.4-123.62
54:162.4-170.63
54:98.4-106.61

115;35;4;1.00
54:134.4-142.23
54:115.4-123.23
54:162.4-170.24
54:98.4-106.24

116;40;2;1.00
7:208.4-214.47
7:188.4-194.47

117;30;3;1.00
7:169.4-175.12
7:208.4-214.12
7:188.4-194.12

118;30;2;1.00
40:20.4-24.4
42:21.4-25.4

119;44;2;0.73
44:102.61-109.24
44:114.51-121.19

120;37;2;1.00
35:113.38-120.22
35:120.39-127.23

121;30;3;1.00
35:113.38-118.8
35:120.39-125.8
35:99.42-105.8

122;148;2;1.00
48:69.50-91.8
48:94.24-135.8

123;144;3;0.69
48:69.50-90.16
48:94.24-133.16
48:71.16-93.16

124;137;4;1.00
48:69.50-89.8
48:94.24-131.8
48:71.16-91.8
48:97.16-135.8

125;133;5;0.67
48:69.50-88.16
48:94.24-130.16
48:71.16-90.16
48:97.16-133.16
48:72.49-93.16

126;126;6;1.00
48:69.50-87.8
48:94.24-128.8
48:71.16-89.8
48:97.16-131.8
48:72.49-91.8
48:100.16-135.8

127;122;7;0.64
48:69.50-86.16
48:94.24-127.16
48:71.16-88.16
48:97.16-130.16
48:72.49-90.16
48:100.16-133.16
48:74.16-93.16

128;115;8;1.00
48:69.50-85.8
48:94.24-125.8
48:71.16-87.8
48:97.16-128.8
48:72.49-89.8
48:100.16-131.8
48:74.16-91.8
48:103.16-135.8

129;111;9;0.60
48:69.50-84.16
48:94.24-124.16
48:71.16-86.16
48:97.16-127.16
48:72.49-88.16
48:100.16-130.16
48:74.16-90.16
48:103.16-133.16
48:76.16-93.16

130;104;10;1.00
48:69.50-83.8
48:94.24-122.8
48:71.16-85.8
48:97.16-125.8
48:72.49-87.8
48:100.16-128.8
48:74.16-89.8
48:103.16-131.8
48:76.16-91.8
48:106.16-135.8

131;100;11;0.63
48:69.50-82.16
48:94.24-121.16
48:71.16-84.16
48:97.16-124.16
48:72.49-86.16
48:100.16-127.16
48:74.16-88.16
48:103.16-130.16
48:76.16-90.16
48:106.16-133.16
48:77.49-93.16

132;93;12;1.00
48:69.50-81.8
48:94.24-119.8
48:71.16-83.8
48:97.16-122.8
48:72.49-85.8
48:100.16-125.8
48:74.16-87.8
48:103.16-128.8
48:76.16-89.8
48:106.16-131.8
48:77.49-91.8
48:109.16-135.8

133;89;13;0.71
48:69.50-80.52
48:94.24-118.16
48:71.16-82.16
48:97.16-121.16
48:72.49-84.16
48:100.16-124.16
48:74.16-86.16
48:103.16-127.16
48:76.16-88.16
48:106.16-130.16
48:77.49-90.16
48:109.16-133.16
48:78.66-93.16

134;82;10;1.00
48:69.50-80.8
48:94.24-116.8
48:97.16-119.8
48:100.16-122.8
48:103.16-125.8
48:106.16-128.8
48:77.49-89.8
48:109.16-131.8
48:78.66-91.8
48:112.16-135.8

135;78;11;0.81
48:69.50-79.53
48:94.24-115.16
48:97.16-118.16
48:100.16-121.16
48:103.16-124.16
48:106.16-127.16
48:77.49-88.16
48:109.16-130.16
48:78.66-90.16
48:112.16-133.16
48:79.53-93.16

136;71;13;1.00
48:69.50-79.8
48:94.24-113.8
48:71.16-80.8
48:97.16-116.8
48:100.16-119.8
48:103.16-122.8
48:106.16-125.8
63:39.50-49.8
48:109.16-128.8
48:78.66-89.8
48:112.16-131.8
48:79.53-91.8
48:115.16-135.8

137;67;14;0.94
48:69.50-78.66
48:94.24-112.16
48:71.16-79.53
48:97.16-115.16
48:100.16-118.16
48:103.16-121.16
48:106.16-124.16
63:39.50-48.49
48:109.16-127.16
48:78.66-88.16
48:112.16-130.16
48:79.53-90.16
48:115.16-133.16
48:80.52-93.16

138;60;15;1.00
48:69.50-78.8
48:94.24-110.8
48:71.16-79.8
48:97.16-113.8
48:100.16-116.8
48:103.16-119.8
48:106.16-122.8
63:39.50-48.8
48:109.16-125.8
48:78.66-87.8
48:112.16-128.8
48:79.53-89.8
48:115.16-131.8
48:80.52-91.8
48:118.16-135.8

139;56;16;1.00
48:69.50-77.49
48:94.24-109.16
48:71.16-78.66
48:97.16-112.16
48:100.16-115.16
48:103.16-118.16
48:106.16-121.16
63:39.50-47.52
48:109.16-124.16
48:78.66-86.16
48:112.16-127.16
48:79.53-88.16
48:115.16-130.16
48:80.52-90.16
48:118.16-133.16
48:82.16-93.16

140;49;18;1.00
48:69.50-77.8
48:94.24-107.8
48:71.16-78.8
48:97.16-110.8
48:72.49-79.8
48:100.16-113.8
48:103.16-116.8
48:106.16-119.8
63:39.50-47.8
48:109.16-122.8
63:41.16-48.8
48:112.16-125.8
48:79.53-87.8
48:115.16-128.8
48:80.52-89.8
48:118.16-131.8
48:82.16-91.8
48:121.16-135.8

141;45;19;1.00
48:69.50-76.16
48:94.24-106.16
48:71.16-77.49
48:97.16-109.16
48:72.49-78.66
48:100.16-112.16
48:103.16-115.16
48:106.16-118.16
63:39.50-46.58
48:109.16-121.16
63:41.16-47.52
48:112.16-124.16
48:79.53-86.16
48:115.16-127.16
48:80.52-88.16
48:118.16-130.16
48:82.16-90.16
48:121.16-133.16
48:84.16-93.16

142;38;20;1.00
48:69.50-75.8
48:94.24-104.8
48:71.16-77.8
48:97.16-107.8
48:72.49-78.8
48:100.16-110.8
48:103.16-113.8
48:106.16-116.8
63:39.50-46.8
48:109.16-119.8
63:41.16-47.8
48:112.16-122.8
48:79.53-85.8
48:115.16-125.8
48:80.52-87.8
48:118.16-128.8
48:82.16-89.8
48:121.16-131.8
48:84.16-91.8
48:124.16-135.8

143;34;21;1.00
48:69.50-74.16
48:94.24-103.16
48:71.16-76.16
48:97.16-106.16
48:72.49-77.49
48:100.16-109.16
48:103.16-112.16
48:106.16-115.16
63:39.50-45.16
48:109.16-118.16
63:41.16-46.58
48:112.16-121.16
48:79.53-84.16
48:115.16-124.16
48:80.52-86.16
48:118.16-127.16
48:82.16-88.16
48:121.16-130.16
48:84.16-90.16
48:124.16-133.16
48:86.16-93.16

144;32;2;1.00
48:142.24-150.41
48:127.16-135.43

145;32;2;1.00
30:73.90-77.61
30:47.64-51.67

146;35;2;0.91
6:173.28-178.23
7:210.38-215.20

147;32;2;0.47
6:173.28-177.39
7:210.38-214.56

148;31;3;1.00
6:173.28-177.37
7:210.38-214.54
7:106.33-110.54

149;34;2;1.00
44:143.44-148.27
39:132.46-137.27

150;38;8;0.97
53:160.78-167.12
0:139.81-146.12
1:207.81-214.12
3:167.81-174.12
6:153.81-160.12
33:196.81-203.12
69:180.81-185.12
70:210.81-217.12

151;35;13;1.00
53:160.78-165.35
0:139.81-144.35
1:207.81-212.35
3:167.81-172.35
6:153.81-158.35
33:196.81-201.35
69:180.81-183.104
70:210.81-215.35
8:223.78-228.35
34:204.78-209.35
35:313.78-318.35
36:257.78-262.35
38:239.78-244.35

152;72;4;1.00
69:207.63-220.29
33:240.63-254.29
3:205.40-218.24
0:162.42-175.26

153;73;2;1.00
35:358.84-373.29
8:270.38-285.24

154;60;6;1.00
69:207.63-218.15
33:240.63-251.15
3:205.40-216.15
0:162.42-173.15
35:358.84-369.15
8:270.38-281.15

155;36;2;1.00
7:217.61-225.8
30:107.93-116.8

156;37;3;1.00
45:191.49-196.26
69:193.53-198.26
0:154.53-159.26

157;36;2;1.00
32:88.47-93.35
30:75.40-80.37

158;33;3;1.00
32:88.47-93.22
30:75.40-80.27
3:200.34-205.23

159;32;4;1.00
32:88.47-93.12
30:75.40-80.16
3:200.34-205.12
30:45.74-51.12

160;31;12;1.00
34:255.47-259.40
68:51.34-55.40
37:100.51-104.40
35:351.47-355.40
24:68.47-72.40
8:261.47-265.40
50:92.47-96.40
36:283.47-287.40
32:88.47-92.40
30:75.40-79.43
3:200.34-204.40
30:45.74-49.42

161;30;2;1.00
48:320.71-326.21
48:325.31-331.21

162;64;5;0.97
8:219.43-235.4
34:200.44-216.4
35:309.43-325.4
36:252.43-269.4
38:234.43-251.4

163;55;6;1.00
53:156.34-165.35
8:219.43-228.35
34:200.44-209.35
35:309.43-318.35
36:252.43-262.35
38:234.43-244.35

164;60;2;1.00
34:186.43-204.37
45:104.34-122.33

165;56;9;1.00
2:125.34-142.46
34:186.43-203.34
45:104.34-121.45
8:193.34-210.32
38:208.34-225.32
35:283.34-300.32
36:225.34-242.32
51:143.34-160.34
52:133.34-150.34

166;37;11;1.00
51:135.34-146.40
52:125.34-136.40
2:125.34-137.51
34:186.43-198.51
45:104.34-116.51
8:193.34-205.51
38:208.34-220.51
35:283.34-295.51
36:225.34-237.51
51:143.34-154.41
52:133.34-144.41

167;43;15;0.98
0:122.34-137.12
1:190.34-205.12
3:150.34-165.12
6:136.34-151.12
33:179.34-194.12
69:163.34-178.12
70:193.34-208.12
8:207.44-221.12
38:222.44-236.12
34:173.34-188.12
53:177.34-191.12
2:158.74-172.12
5:141.74-156.12
45:160.74-175.12
67:137.74-152.12

168;78;4;0.97
8:215.36-235.4
35:305.56-325.4
36:248.36-269.4
38:230.36-251.4

169;33;11;1.00
0:130.36-139.77
1:198.36-207.77
3:158.36-167.77
6:144.36-153.77
33:187.36-196.77
69:171.36-180.77
70:201.36-210.77
8:215.36-223.74
35:305.56-313.74
36:248.36-257.74
38:230.36-239.74

170;50;4;1.00
52:202.59-214.25
51:222.59-234.25
52:205.24-217.25
51:225.24-237.25

171;38;6;1.00
52:202.59-211.25
51:222.59-231.25
52:205.24-214.25
51:225.24-234.25
52:208.24-217.25
51:228.24-237.25

172;61;5;1.00
45:101.64-121.45
8:191.65-210.32
38:206.60-225.32
35:281.65-300.32
36:223.64-242.32

173;75;2;1.00
38:191.65-211.41
38:176.47-196.43

174;49;8;1.00
34:156.46-168.49
38:161.46-173.49
8:134.46-146.49
35:224.46-236.49
36:166.46-178.49
45:138.46-150.49
38:191.65-203.36
38:176.47-188.36

175;124;6;1.00
8:163.60-196.41
35:253.60-286.41
36:195.59-228.41
8:149.47-182.51
35:239.47-272.51
36:181.47-214.51

176;69;9;1.00
8:177.55-196.41
35:267.55-286.41
36:209.54-228.41
8:163.60-182.51
35:253.60-272.51
36:195.59-214.51
8:149.47-168.43
35:239.47-258.43
36:181.47-200.43

177;46;13;1.00
33:135.64-148.36
69:119.64-132.36
70:149.64-162.36
35:187.64-200.36
8:177.55-189.31
35:267.55-279.31
36:209.54-221.31
8:163.60-175.31
35:253.60-265.31
36:195.59-207.31
8:149.47-161.31
35:239.47-251.31
36:181.47-193.31

178;44;21;1.00
34:156.46-167.56
38:161.46-172.56
8:134.46-145.56
35:224.46-235.56
36:166.46-177.56
45:138.46-149.56
38:191.65-202.56
38:176.47-187.56
33:135.64-147.55
69:119.64-131.54
70:149.64-161.54
35:187.64-199.56
8:177.55-188.56
35:267.55-278.56
36:209.54-220.56
8:163.60-174.56
35:253.60-264.56
36:195.59-206.56
8:149.47-160.56
35:239.47-250.56
36:181.47-192.56

179;76;2;0.91
0:162.43-176.30
4:116.32-130.34

180;72;3;0.96
3:205.41-218.25
0:162.43-175.27
4:116.32-129.26

181;71;5;0.97
69:207.64-220.29
33:240.64-254.29
3:205.41-218.24
0:162.43-175.26
4:116.32-129.25

182;59;7;1.00
69:207.64-218.15
33:240.64-251.15
3:205.41-216.15
0:162.43-173.15
4:116.32-127.15
35:358.85-369.15
8:270.39-281.15

183;34;2;1.00
27:57.73-59.72
60:75.76-77.67

184;30;5;0.57
27:57.73-59.67
60:75.76-77.62
32:115.93-117.63
51:259.93-261.63
52:248.93-250.63

185;153;2;0.71
48:67.68-90.16
48:69.93-93.16

186;146;3;1.00
48:67.68-89.8
48:69.93-91.8
48:94.34-135.8

187;142;4;0.69
48:67.68-88.16
48:69.93-90.16
48:94.34-133.16
48:71.67-93.16

188;135;5;1.00
48:67.68-87.8
48:69.93-89.8
48:94.34-131.8
48:71.67-91.8
48:97.79-135.8

189;131;6;0.66
48:67.68-86.16
48:69.93-88.16
48:94.34-130.16
48:71.67-90.16
48:97.79-133.16
48:72.92-93.16

190;124;7;1.00
48:67.68-85.8
48:69.93-87.8
48:94.34-128.8
48:71.67-89.8
48:97.79-131.8
48:72.92-91.8
48:100.85-135.8

191;120;8;0.63
48:67.68-84.16
48:69.93-86.16
48:94.34-127.16
48:71.67-88.16
48:97.79-130.16
48:72.92-90.16
48:100.85-133.16
48:74.70-93.16

192;113;9;1.00
48:67.68-83.8
48:69.93-85.8
48:94.34-125.8
48:71.67-87.8
48:97.79-128.8
48:72.92-89.8
48:100.85-131.8
48:74.70-91.8
48:103.68-135.8

193;109;10;0.60
48:67.68-82.16
48:69.93-84.16
48:94.34-124.16
48:71.67-86.16
48:97.79-127.16
48:72.92-88.16
48:100.85-130.16
48:74.70-90.16
48:103.68-133.16
48:76.91-93.16

194;102;11;1.00
48:67.68-81.8
48:69.93-83.8
48:94.34-122.8
48:71.67-85.8
48:97.79-125.8
48:72.92-87.8
48:100.85-128.8
48:74.70-89.8
48:103.68-131.8
48:76.91-91.8
48:106.62-135.8

195;98;12;0.64
48:67.68-80.52
48:69.93-82.16
48:94.34-121.16
48:71.67-84.16
48:97.79-124.16
48:72.92-86.16
48:100.85-127.16
48:74.70-88.16
48:103.68-130.16
48:76.91-90.16
48:106.62-133.16
48:77.92-93.16

196;91;14;1.00
48:67.68-80.8
48:69.93-81.8
48:94.34-119.8
48:71.67-83.8
48:97.79-122.8
48:72.92-85.8
48:100.85-125.8
48:74.70-87.8
48:103.68-128.8
48:76.91-89.8
63:37.68-50.8
48:106.62-131.8
48:77.92-91.8
48:109.59-135.8

197;87;11;0.72
48:67.68-79.53
48:69.93-80.52
48:94.34-118.16
48:97.79-121.16
48:100.85-124.16
48:103.68-127.16
63:37.68-49.51
48:106.62-130.16
48:77.92-90.16
48:109.59-133.16
48:78.129-93.16

198;80;12;1.00
48:67.68-79.8
48:69.93-80.8
48:94.34-116.8
48:97.79-119.8
48:100.85-122.8
48:103.68-125.8
63:37.68-49.8
48:106.62-128.8
48:77.92-89.8
48:109.59-131.8
48:78.129-91.8
48:112.73-135.8

199;76;13;0.83
48:67.68-78.66
48:69.93-79.53
48:94.34-115.16
48:97.79-118.16
48:100.85-121.16
48:103.68-124.16
63:37.68-48.49
48:106.62-127.16
48:77.92-88.16
48:109.59-130.16
48:78.129-90.16
48:112.73-133.16
48:79.100-93.16

200;69;15;1.00
48:67.68-78.8
48:69.93-79.8
48:94.34-113.8
48:71.67-80.8
48:97.79-116.8
48:100.85-119.8
48:103.68-122.8
63:37.68-48.8
48:106.62-125.8
63:39.96-49.8
48:109.59-128.8
48:78.129-89.8
48:112.73-131.8
48:79.100-91.8
48:115.78-135.8

201;65;16;0.97
48:67.68-77.49
48:69.93-78.66
48:94.34-112.16
48:71.67-79.53
48:97.79-115.16
48:100.85-118.16
48:103.68-121.16
63:37.68-47.52
48:106.62-124.16
63:39.96-48.49
48:109.59-127.16
48:78.129-88.16
48:112.73-130.16
48:79.100-90.16
48:115.78-133.16
48:80.98-93.16

202;58;17;1.00
48:67.68-77.8
48:69.93-78.8
48:94.34-110.8
48:71.67-79.8
48:97.79-113.8
48:100.85-116.8
48:103.68-119.8
63:37.68-47.8
48:106.62-122.8
63:39.96-48.8
48:109.59-125.8
48:78.129-87.8
48:112.73-128.8
48:79.100-89.8
48:115.78-131.8
48:80.98-91.8
48:118.105-135.8

203;54;18;1.00
48:67.68-76.16
48:69.93-77.49
48:94.34-109.16
48:71.67-78.66
48:97.79-112.16
48:100.85-115.16
48:103.68-118.16
63:37.68-46.58
48:106.62-121.16
63:39.96-47.52
48:109.59-124.16
48:78.129-86.16
48:112.73-127.16
48:79.100-88.16
48:115.78-130.16
48:80.98-90.16
48:118.105-133.16
48:82.75-93.16

204;47;20;1.00
48:67.68-75.8
48:69.93-77.8
48:94.34-107.8
48:71.67-78.8
48:97.79-110.8
48:72.92-79.8
48:100.85-113.8
48:103.68-116.8
63:37.68-46.8
48:106.62-119.8
63:39.96-47.8
48:109.59-122.8
63:41.61-48.8
48:112.73-125.8
48:79.100-87.8
48:115.78-128.8
48:80.98-89.8
48:118.105-131.8
48:82.75-91.8
48:121.105-135.8

205;43;21;1.00
48:67.68-74.16
48:69.93-76.16
48:94.34-106.16
48:71.67-77.49
48:97.79-109.16
48:72.92-78.66
48:100.85-112.16
48:103.68-115.16
63:37.68-45.16
48:106.62-118.16
63:39.96-46.58
48:109.59-121.16
63:41.61-47.52
48:112.73-124.16
48:79.100-86.16
48:115.78-127.16
48:80.98-88.16
48:118.105-130.16
48:82.75-90.16
48:121.105-133.16
48:84.92-93.16

206;36;22;1.00
48:67.68-73.8
48:69.93-75.8
48:94.34-104.8
48:71.67-77.8
48:97.79-107.8
48:72.92-78.8
48:100.85-110.8
48:103.68-113.8
63:37.68-44.8
48:106.62-116.8
63:39.96-46.8
48:109.59-119.8
63:41.61-47.8
48:112.73-122.8
48:79.100-85.8
48:115.78-125.8
48:80.98-87.8
48:118.105-128.8
48:82.75-89.8
48:121.105-131.8
48:84.92-91.8
48:124.57-135.8

207;32;23;1.00
48:67.68-72.49
48:69.93-74.16
48:94.34-103.16
48:71.67-76.16
48:97.79-106.16
48:72.92-77.49
48:100.85-109.16
48:103.68-112.16
63:37.68-43.16
48:106.62-115.16
63:39.96-45.16
48:109.59-118.16
63:41.61-46.58
48:112.73-121.16
48:79.100-84.16
48:115.78-124.16
48:80.98-86.16
48:118.105-127.16
48:82.75-88.16
48:121.105-130.16
48:84.92-90.16
48:124.57-133.16
48:86.85-93.16

208;38;2;1.00
48:90.94-101.8
48:138.25-150.8

209;34;2;1.00
24:130.59-136.14
24:111.40-117.14

210;31;2;1.00
69:221.38-225.30
58:59.45-63.25

211;40;2;0.55
34:59.41-73.8
35:70.45-83.8

212;32;2;0.91
38:290.32-296.8
36:332.35-337.12

213;32;2;0.63
67:195.35-200.28
59:63.55-68.27

214;31;3;0.61
64:103.63-108.33
67:195.35-200.26
59:63.55-68.25

215;51;2;0.86
61:64.28-76.24
59:64.29-76.24

216;96;2;1.00
52:197.32-225.8
51:217.50-244.8

217;77;2;0.57
51:67.58-96.8
52:74.51-103.8

218;40;2;0.57
44:122.59-129.40
53:234.47-241.44

219;37;2;1.00
33:252.53-260.33
0:175.57-182.26

220;32;2;0.94
40:58.36-65.8
39:92.38-100.12

221;31;3;0.77
40:58.36-64.33
39:92.38-98.37
42:59.36-65.35

222;40;2;0.75
50:41.41-55.34
34:60.51-74.33

223;35;3;0.63
50:41.41-54.8
34:60.51-73.8
35:71.51-83.8

224;60;3;1.00
2:123.64-142.46
51:142.50-160.34
52:132.50-150.34

225;41;5;1.00
51:133.62-146.40
52:123.64-136.40
2:123.64-137.51
51:142.50-154.41
52:132.50-144.41

226;50;9;1.00
0:91.64-104.41
1:160.62-172.41
3:120.64-132.41
6:105.62-117.41
5:114.62-126.41
53:114.64-126.42
8:110.64-122.42
45:117.83-128.42
2:144.99-156.34

227;61;8;1.00
0:120.98-139.77
1:188.99-207.77
3:148.99-167.77
33:177.98-196.77
69:161.99-180.77
70:191.98-210.77
8:206.83-223.74
38:221.83-239.74

228;51;9;1.00
0:120.98-138.34
1:188.99-206.34
3:148.99-166.34
33:177.98-195.34
69:161.99-179.34
70:191.98-209.34
8:206.83-222.34
38:221.83-238.34
53:176.75-192.40

229;30;3;0.60
69:57.51-69.8
0:48.41-60.8
6:52.45-65.8

230;33;2;1.00
7:113.65-117.27
7:115.29-119.19

231;40;3;0.82
8:277.68-286.34
24:94.33-103.25
36:320.33-329.25

232;36;4;0.81
2:216.33-224.26
8:277.68-285.25
24:94.33-102.35
36:320.33-328.35

233;35;5;0.80
35:365.68-373.29
2:216.33-224.25
8:277.68-285.24
24:94.33-102.34
36:320.33-328.34

234;47;2;0.74
24:93.68-103.35
36:319.33-329.51

235;41;3;0.71
2:215.33-224.26
24:93.68-102.35
36:319.33-328.35

236;46;2;0.63
2:214.33-224.26
36:318.69-328.35

237;56;2;1.00
57:63.54-76.4
62:59.49-72.4

238;45;2;0.67
32:98.36-108.28
51:239.46-249.28

239;30;2;1.00
5:197.31-202.25
5:203.47-208.21

240;31;2;0.94
23:33.60-41.22
70:47.43-55.27

241;30;2;1.00
36:56.49-65.36
66:37.59-46.36

242;40;2;0.95
51:57.32-66.8
52:60.49-69.8

243;58;2;0.69
69:47.38-63.38
2:48.26-64.27

244;47;3;0.70
45:42.38-54.36
69:47.38-59.29
2:48.26-59.29

245;42;7;0.62
45:42.38-52.46
69:47.38-57.46
2:48.26-58.46
67:45.38-55.29
5:47.38-57.29
0:39.38-50.29
6:42.38-52.33

246;32;2;0.94
44:109.30-114.12
45:192.50-198.12

247;33;2;1.00
67:164.55-167.58
23:108.51-112.59

248;116;2;0.53
48:65.23-81.8
63:35.36-52.8

249;42;2;0.83
1:293.49-301.28
33:254.35-262.28

250;35;3;1.00
39:137.52-143.28
1:293.49-299.38
33:254.35-260.38

251;37;2;0.81
0:176.36-183.29
64:121.46-129.24

252;35;3;0.94
0:176.36-182.32
64:121.46-127.26
64:105.40-111.27

253;32;7;0.94
69:222.79-228.34
39:137.52-143.22
1:293.49-299.33
33:254.35-260.33
0:176.36-182.26
64:121.46-127.17
64:105.40-111.17

254;44;2;0.68
5:209.31-218.26
67:197.35-206.29

255;51;4;1.00
56:58.56-70.4
57:64.38-76.4
59:65.32-77.4
62:60.60-72.4

256;46;5;1.00
61:65.27-76.24
56:58.56-69.24
57:64.38-75.24
59:65.32-76.24
62:60.60-71.24

257;45;6;1.00
61:65.27-76.23
56:58.56-69.23
57:64.38-75.23
59:65.32-76.23
62:60.60-71.23
55:55.39-66.25

258;37;7;1.00
58:60.66-67.23
61:65.27-72.23
56:58.56-65.23
57:64.38-71.23
59:65.32-72.23
62:60.60-67.23
55:55.39-62.23

259;81;2;0.68
64:96.55-108.33
59:56.87-68.25

260;33;3;1.00
60:54.87-59.25
64:96.55-101.37
59:56.87-61.29

261;33;2;1.00
25:37.45-44.31
28:34.93-41.22

262;32;2;1.00
7:68.29-75.40
34:87.28-94.35

263;31;2;0.94
53:81.38-87.32
40:59.34-65.35

264;33;2;0.70
1:93.62-100.28
8:75.26-82.26

265;38;2;1.00
25:51.24-60.24
67:78.23-87.22

266;31;2;0.68
38:81.26-88.29
54:62.61-70.31

267;35;3;0.51
53:89.33-97.8
67:70.33-78.8
5:73.32-82.8

268;31;2;1.00
31:37.93-44.37
25:48.52-55.35

269;47;2;0.57
36:59.51-76.27
38:55.41-72.33

270;37;2;0.68
8:56.58-71.36
50:42.42-57.26

271;35;3;0.71
8:56.58-69.34
50:42.42-55.34
34:61.42-74.33

272;30;4;0.63
8:56.58-68.8
50:42.42-54.8
34:61.42-73.8
35:72.42-83.8

273;34;2;0.71
22:78.54-86.42
34:266.56-275.42

274;32;2;0.53
3:93.33-100.17
1:109.35-116.17

275;34;2;1.00
43:93.75-95.57
60:75.66-77.51

276;30;2;1.00
43:96.43-97.90
60:77.47-78.89

277;37;3;0.95
43:48.47-59.35
40:40.47-51.35
39:74.62-85.33

278;35;4;0.97
43:48.47-58.8
40:40.47-50.8
39:74.62-84.12
42:41.47-51.8

279;33;2;1.00
7:110.54-114.21
7:175.62-179.22

280;54;2;1.00
6:134.16-153.40
34:172.16-190.45

281;33;2;1.00
24:77.8-82.22
36:302.8-307.23

282;72;3;0.99
69:208.8-220.36
33:241.8-254.36
1:254.8-267.36

283;69;6;0.97
69:208.8-220.29
33:241.8-254.29
1:254.8-267.29
3:206.8-218.24
0:163.8-175.26
4:117.8-129.25

284;57;8;1.00
69:208.8-218.15
33:241.8-251.15
1:254.8-264.15
3:206.8-216.15
0:163.8-173.15
4:117.8-127.15
35:359.8-369.15
8:271.8-281.15

285;30;2;1.00
36:288.35-293.8
36:307.30-312.8

286;34;2;1.00
33:234.31-238.24
6:173.30-178.25

287;33;3;0.91
33:234.31-238.22
6:173.30-178.23
7:210.40-215.20

288;35;2;1.00
7:132.64-136.37
30:102.21-107.37

289;30;4;1.00
33:234.31-237.40
6:173.30-177.39
7:210.40-214.56
30:102.21-106.39

290;32;2;0.94
51:200.26-206.41
52:186.26-192.40

291;37;2;1.00
36:306.33-309.41
36:295.35-298.41

292;47;2;1.00
30:106.32-110.76
44:164.29-168.50

293;57;2;0.82
36:326.41-336.34
66:154.46-163.29

294;85;2;1.00
69:206.49-221.12
33:239.56-256.12

295;69;3;1.00
69:206.49-218.15
33:239.56-251.15
35:358.39-369.15

296;31;2;1.00
51:208.49-216.29
6:193.52-201.30

297;55;2;1.00
67:169.34-175.8
67:174.40-180.8

298;32;2;0.69
32:93.81-98.37
52:193.78-198.37

299;36;2;1.00
70:40.4-49.8
63:28.4-37.8

300;35;3;1.00
70:40.4-47.44
63:28.4-35.37
48:55.4-62.42

301;49;2;0.84
4:32.4-41.8
3:38.4-49.8

302;42;2;1.00
23:28.4-36.52
66:32.4-40.52

303;46;2;1.00
7:44.4-52.49
68:22.4-31.49

304;53;2;0.79
58:27.4-38.35
59:27.4-38.26

305;66;2;0.73
56:26.4-39.4
62:26.4-39.4

306;62;3;0.71
61:26.4-38.26
56:26.4-38.27
62:26.4-38.27

307;60;4;0.70
57:27.4-38.49
61:26.4-37.43
56:26.4-37.52
62:26.4-37.49

308;48;6;0.88
58:27.4-37.43
59:27.4-37.43
57:27.4-37.45
61:26.4-36.36
56:26.4-36.42
62:26.4-36.45

309;45;7;0.93
32:33.4-43.22
58:27.4-37.27
59:27.4-37.27
57:27.4-37.27
61:26.4-36.24
56:26.4-36.24
62:26.4-36.27

310;45;2;0.82
60:28.4-38.29
24:27.4-36.38

311;44;9;0.84
32:33.4-43.21
58:27.4-37.26
59:27.4-37.26
57:27.4-37.26
61:26.4-36.23
56:26.4-36.23
62:26.4-36.26
60:28.4-38.28
24:27.4-36.37

312;42;10;0.88
55:26.4-34.21
32:33.4-41.46
58:27.4-35.21
59:27.4-35.21
57:27.4-35.21
61:26.4-34.21
56:26.4-34.21
62:26.4-34.21
60:28.4-36.21
24:27.4-35.46

313;39;15;0.95
23:28.4-36.46
66:32.4-40.46
2:40.4-48.23
7:44.4-52.29
68:22.4-31.29
55:26.4-34.13
32:33.4-41.33
58:27.4-35.13
59:27.4-35.13
57:27.4-35.13
61:26.4-34.13
56:26.4-34.13
62:26.4-34.13
60:28.4-36.13
24:27.4-35.33

314;46;3;0.65
38:41.4-50.29
50:26.4-35.24
64:33.4-42.13

315;82;2;0.74
45:35.4-54.36
69:41.4-59.29

316;99;2;0.69
67:38.4-59.36
5:40.4-63.36

317;84;3;0.75
67:38.4-55.49
5:40.4-57.49
0:32.4-50.49

318;77;6;0.73
45:35.4-52.46
69:41.4-57.46
67:38.4-55.29
5:40.4-57.29
0:32.4-50.29
6:35.4-52.33

319;59;8;0.51
52:44.4-57.8
35:50.4-63.8
34:40.4-53.8
36:40.4-52.8
8:35.4-48.8
51:44.4-56.8
1:52.4-65.8
33:42.4-55.8

320;52;14;0.58
45:35.4-46.8
69:41.4-51.8
67:38.4-49.8
5:40.4-51.8
0:32.4-43.8
6:35.4-46.8
52:44.4-55.8
35:50.4-61.8
34:40.4-51.8
36:40.4-50.8
8:35.4-46.8
51:44.4-55.8
1:52.4-63.8
33:42.4-53.8

321;45;17;0.67
38:41.4-50.8
50:26.4-35.8
64:33.4-42.8
45:35.4-45.8
69:41.4-50.8
67:38.4-48.8
5:40.4-50.8
0:32.4-42.8
6:35.4-45.8
52:44.4-54.8
35:50.4-60.8
34:40.4-50.8
36:40.4-49.8
8:35.4-45.8
51:44.4-54.8
1:52.4-62.8
33:42.4-52.8

322;38;32;0.79
23:28.4-36.8
66:32.4-40.8
2:40.4-48.8
7:44.4-52.8
68:22.4-31.8
55:26.4-34.8
32:33.4-41.8
58:27.4-35.8
59:27.4-35.8
57:27.4-35.8
61:26.4-34.8
56:26.4-34.8
62:26.4-34.8
60:28.4-36.8
24:27.4-35.8
38:41.4-49.8
50:26.4-34.8
64:33.4-41.8
45:35.4-43.8
69:41.4-48.8
67:38.4-46.8
5:40.4-48.8
0:32.4-40.8
6:35.4-43.8
52:44.4-52.8
35:50.4-58.8
34:40.4-48.8
36:40.4-48.8
8:35.4-43.8
51:44.4-52.8
1:52.4-60.8
33:42.4-50.8

323;37;33;1.00
23:28.4-35.42
66:32.4-39.42
2:40.4-47.39
7:44.4-51.42
68:22.4-29.42
55:26.4-33.42
32:33.4-40.42
58:27.4-34.42
59:27.4-34.42
57:27.4-34.42
61:26.4-33.42
56:26.4-33.42
62:26.4-33.42
60:28.4-35.42
24:27.4-34.42
38:41.4-48.39
50:26.4-33.50
64:33.4-40.48
45:35.4-42.39
69:41.4-47.39
67:38.4-45.39
5:40.4-47.39
0:32.4-39.39
6:35.4-42.39
52:44.4-51.39
35:50.4-57.39
34:40.4-47.39
36:40.4-47.39
8:35.4-42.39
51:44.4-51.39
1:52.4-59.39
33:42.4-49.39
22:39.4-46.42

324;35;35;1.00
4:32.4-39.39
3:38.4-45.56
23:28.4-35.30
66:32.4-39.30
2:40.4-47.27
7:44.4-51.30
68:22.4-29.30
55:26.4-33.30
32:33.4-40.30
58:27.4-34.30
59:27.4-34.30
57:27.4-34.30
61:26.4-33.30
56:26.4-33.30
62:26.4-33.30
60:28.4-35.30
24:27.4-34.30
38:41.4-48.27
50:26.4-33.32
64:33.4-40.33
45:35.4-42.27
69:41.4-47.27
67:38.4-45.27
5:40.4-47.27
0:32.4-39.27
6:35.4-42.27
52:44.4-51.27
35:50.4-57.27
34:40.4-47.27
36:40.4-47.27
8:35.4-42.27
51:44.4-51.27
1:52.4-59.27
33:42.4-49.27
22:39.4-46.30

325;40;2;0.95
29:24.4-33.35
53:34.4-42.22

326;68;2;1.00
44:41.4-53.37
39:37.4-49.37

327;39;4;1.00
29:24.4-33.8
53:34.4-42.8
44:41.4-50.8
39:37.4-46.8

328;31;43;1.00
70:40.4-47.8
63:28.4-35.8
48:55.4-62.8
37:23.4-30.8
4:32.4-39.8
3:38.4-45.8
23:28.4-35.8
66:32.4-39.8
2:40.4-47.8
7:44.4-51.8
68:22.4-29.8
55:26.4-33.8
32:33.4-40.8
58:27.4-34.8
59:27.4-34.8
57:27.4-34.8
61:26.4-33.8
56:26.4-33.8
62:26.4-33.8
60:28.4-35.8
24:27.4-34.8
38:41.4-48.8
50:26.4-33.8
64:33.4-40.8
45:35.4-42.8
69:41.4-47.8
67:38.4-45.8
5:40.4-47.8
0:32.4-39.8
6:35.4-42.8
52:44.4-51.8
35:50.4-57.8
34:40.4-47.8
36:40.4-47.8
8:35.4-42.8
51:44.4-51.8
1:52.4-59.8
33:42.4-49.8
22:39.4-46.8
29:24.4-32.8
53:34.4-41.8
44:41.4-48.8
39:37.4-44.8

329;60;2;1.00
52:117.4-129.45
53:108.4-120.35

330;55;3;1.00
51:120.4-131.41
52:117.4-128.40
53:108.4-119.45

331;181;2;1.00
1:147.4-187.69
6:92.4-132.72

332;168;3;1.00
1:147.4-186.46
6:92.4-131.63
5:101.4-140.34

333;272;2;0.99
0:84.4-149.4
3:114.4-177.4

334;89;3;1.00
0:84.4-104.41
3:114.4-132.41
8:104.4-122.42

335;57;4;1.00
2:117.4-129.46
0:84.4-98.34
3:114.4-126.35
8:104.4-116.34

336;52;7;1.00
1:147.4-158.41
6:92.4-103.41
5:101.4-112.41
2:117.4-128.41
0:84.4-96.45
3:114.4-125.45
8:104.4-115.45

337;33;8;1.00
7:237.4-241.66
1:147.4-152.66
6:92.4-97.66
5:101.4-106.66
2:117.4-122.69
0:84.4-90.66
3:114.4-119.69
8:104.4-109.66

338;169;2;0.99
67:97.4-139.12
22:97.4-139.12

339;255;2;1.00
38:126.4-187.56
36:131.4-192.56

340;226;3;1.00
34:121.4-177.16
38:126.4-182.16
36:131.4-187.16

341;107;5;1.00
67:97.4-121.41
22:97.4-121.41
34:121.4-145.42
38:126.4-150.42
36:131.4-155.42

342;75;6;1.00
45:90.4-108.46
67:97.4-115.34
22:97.4-115.34
34:121.4-139.34
38:126.4-144.35
36:131.4-149.35

343;340;3;0.99
33:124.4-206.4
69:108.4-188.4
70:138.4-220.4

344;157;4;1.00
33:124.4-161.41
69:108.4-145.41
70:138.4-175.41
35:176.4-213.42

345;70;10;1.00
45:90.4-107.41
67:97.4-114.45
22:97.4-114.45
34:121.4-138.45
38:126.4-143.45
36:131.4-148.45
33:124.4-141.41
69:108.4-125.41
70:138.4-155.41
35:176.4-193.41

346;209;2;1.00
48:158.4-199.21
63:71.4-112.21

347;49;2;0.55
51:189.4-196.4
52:175.4-182.4

348;31;2;1.00
3:179.4-184.38
38:253.4-258.38

349;54;2;1.00
33:208.4-215.25
1:219.4-226.25

350;58;4;1.00
8:237.4-247.4
34:218.4-228.4
35:327.4-337.4
36:271.4-281.4

351;52;6;1.00
33:208.4-214.69
1:219.4-225.70
8:237.4-243.69
34:218.4-224.69
35:327.4-333.69
36:271.4-277.69

352;101;2;1.00
69:190.4-200.66
0:151.4-161.65

353;53;3;0.74
69:190.4-196.62
0:151.4-157.62
67:157.4-163.56

354;40;9;0.98
33:208.4-214.8
1:219.4-225.8
8:237.4-243.8
34:218.4-224.8
35:327.4-333.8
36:271.4-277.8
69:190.4-196.8
0:151.4-157.8
67:157.4-163.8

355;44;2;1.00
51:269.4-277.4
52:258.4-266.4

356;30;2;1.00
2:261.4-264.4
35:409.4-412.4

357;36;5;1.00
5:228.4-233.4
22:144.4-149.4
34:230.4-235.4
45:225.4-230.4
67:212.4-217.4

358;32;2;1.00
25:95.4-98.4
35:438.4-441.4

359;85;2;0.98
43:39.4-60.34
40:31.4-52.42

360;74;3;0.99
43:39.4-58.8
40:31.4-50.8
42:32.4-51.8

361;66;2;0.88
39:63.8-78.16
49:30.4-43.12

362;102;2;1.00
31:24.4-44.31
26:24.4-45.27

363;60;2;1.00
27:27.4-36.8
28:27.4-36.8

364;44;4;1.00
31:24.4-32.8
26:24.4-32.8
27:27.4-34.8
28:27.4-34.8

365;62;2;1.00
37:100.21-106.35
35:351.17-358.36

366;54;3;1.00
37:100.21-105.59
35:351.17-357.59
24:68.17-73.60

367;51;4;1.00
34:255.17-260.55
37:100.21-105.54
35:351.17-357.54
24:68.17-73.54

368;42;6;1.00
34:255.17-260.25
37:100.21-105.24
35:351.17-357.24
24:68.17-73.24
8:261.17-266.25
50:92.17-97.25

369;41;7;1.00
34:255.17-260.23
37:100.21-105.22
35:351.17-357.22
24:68.17-73.22
8:261.17-266.23
50:92.17-97.23
36:283.17-288.23

370;38;8;1.00
34:255.17-259.40
37:100.21-104.40
35:351.17-355.40
24:68.17-72.40
8:261.17-265.40
50:92.17-96.40
36:283.17-287.40
32:88.17-92.40

371;34;2;1.00
64:120.8-124.35
55:54.8-58.25

372;36;2;1.00
24:76.12-81.28
36:290.12-295.28

373;68;2;1.00
0:162.12-173.15
8:270.12-281.15

374;32;2;0.69
70:68.30-74.29
33:82.8-88.29

375;34;2;0.59
33:59.8-73.8
3:53.8-66.8

376;32;2;0.63
33:59.8-70.34
3:53.8-63.34

377;61;2;0.67
40:52.8-64.33
42:53.38-65.35

378;33;2;0.70
42:53.38-60.8
39:87.42-95.12

379;47;2;1.00
33:268.4-278.50
1:309.4-318.50

380;57;4;0.96
2:158.16-175.4
5:141.16-159.4
45:160.16-178.4
67:137.16-155.4

381;54;3;1.00
8:206.50-222.34
38:221.50-238.34
53:176.64-192.40

382;31;4;1.00
8:206.50-215.32
38:221.50-230.32
53:176.64-185.32
35:296.50-305.32

383;57;2;1.00
53:156.16-165.35
34:200.16-209.35

384;58;8;1.00
2:125.16-142.46
45:104.16-121.45
8:193.16-210.32
38:208.16-225.32
35:283.16-300.32
36:225.16-242.32
51:143.16-160.34
52:133.16-150.34

385;39;10;1.00
51:135.16-146.40
52:125.16-136.40
2:125.16-137.51
45:104.16-116.51
8:193.16-205.51
38:208.16-220.51
35:283.16-295.51
36:225.16-237.51
51:143.16-154.41
52:133.16-144.41

386;231;6;0.99
0:93.16-149.4
1:162.16-217.4
3:122.16-177.4
33:151.16-206.4
69:135.16-188.4
70:165.16-220.4

387;108;7;1.00
0:93.16-119.69
1:162.16-187.69
3:122.16-147.69
33:151.16-176.69
69:135.16-160.69
70:165.16-190.69
6:107.16-132.72

388;95;10;1.00
0:93.16-118.46
1:162.16-186.46
3:122.16-146.46
33:151.16-175.46
69:135.16-159.46
70:165.16-189.46
6:107.16-131.63
5:116.16-140.34
67:111.16-135.34
22:111.16-135.34

389;77;11;1.00
0:93.16-114.16
1:162.16-182.16
3:122.16-142.16
33:151.16-171.16
69:135.16-155.16
70:165.16-185.16
6:107.16-127.16
5:116.16-136.16
67:111.16-131.16
22:111.16-131.16
53:116.16-136.16

390;393;2;1.00
8:112.16-215.32
35:203.16-305.32

391;383;3;1.00
8:112.16-211.37
35:203.16-301.37
36:145.16-243.37

392;196;4;1.00
38:140.16-187.56
8:112.16-160.56
35:203.16-250.56
36:145.16-192.56

393;167;5;1.00
34:135.16-177.16
38:140.16-182.16
8:112.16-155.16
35:203.16-245.16
36:145.16-187.16

394;166;6;1.00
34:135.16-176.32
38:140.16-181.41
8:112.16-154.41
35:203.16-244.41
36:145.16-186.41
45:118.16-158.34

395;48;18;1.00
0:93.16-104.41
1:162.16-172.41
3:122.16-132.41
33:151.16-161.41
69:135.16-145.41
70:165.16-175.41
6:107.16-117.41
5:116.16-126.41
67:111.16-121.41
22:111.16-121.41
53:116.16-126.42
34:135.16-145.42
38:140.16-150.42
8:112.16-122.42
35:203.16-213.42
36:145.16-155.42
45:118.16-128.42
2:146.16-156.34

396;103;7;0.98
0:122.16-149.4
1:190.16-217.4
3:150.16-177.4
6:136.16-163.4
33:179.16-206.4
69:163.16-188.4
70:193.16-220.4

397;59;9;1.00
0:122.16-139.77
1:190.16-207.77
3:150.16-167.77
6:136.16-153.77
33:179.16-196.77
69:163.16-180.77
70:193.16-210.77
8:207.16-223.74
38:222.16-239.74

398;53;10;1.00
0:122.16-139.40
1:190.16-207.40
3:150.16-167.40
6:136.16-153.40
33:179.16-196.40
69:163.16-180.40
70:193.16-210.40
8:207.16-223.37
38:222.16-239.37
34:173.16-190.45

399;49;11;1.00
0:122.16-138.34
1:190.16-206.34
3:150.16-166.34
6:136.16-152.34
33:179.16-195.34
69:163.16-179.34
70:193.16-209.34
8:207.16-222.34
38:222.16-238.34
34:173.16-189.41
53:177.16-192.40

400;31;2;0.87
53:171.16-177.35
53:165.29-170.45

401;39;2;1.00
53:131.16-139.47
53:145.16-153.47

402;69;2;0.97
45:155.16-178.4
67:132.16-155.4

403;41;4;1.00
23:177.16-183.21
23:173.16-179.21
23:169.16-175.21
23:186.16-192.21

404;36;2;0.92
6:173.8-178.23
7:210.28-215.20

405;32;3;1.00
6:173.8-177.37
7:210.28-214.54
7:106.25-110.54

406;30;4;1.00
6:173.8-177.34
7:210.28-214.47
7:106.25-110.47
7:190.27-194.47

407;37;2;0.73
42:53.8-60.8
39:87.12-95.12

408;32;3;0.69
8:59.8-69.34
50:45.8-55.34
34:64.8-74.33

409;32;11;1.00
2:138.16-143.69
0:114.16-119.69
1:182.16-187.69
3:142.16-147.69
33:171.16-176.69
69:155.16-160.69
70:185.16-190.69
6:127.16-132.72
1:153.20-159.66
6:98.20-104.66
5:107.20-113.66

410;174;2;1.00
8:110.20-154.41
45:117.16-158.34

411;56;8;1.00
0:91.20-104.41
1:160.20-172.41
3:120.20-132.41
6:105.20-117.41
5:114.20-126.41
53:114.20-126.42
8:110.20-122.42
45:117.16-128.42

412;42;2;0.52
57:58.8-64.39
6:203.8-209.40

413;33;2;0.64
0:48.17-60.8
6:52.8-65.8

414;74;2;1.00
3:205.39-218.25
0:162.39-175.27

415;61;3;1.00
3:205.39-216.15
0:162.39-173.15
8:270.35-281.15

416;55;3;1.00
68:51.29-57.36
37:100.46-106.33
35:351.42-358.34

417;48;4;1.00
68:51.29-56.60
37:100.46-105.59
35:351.42-357.59
24:68.42-73.60

418;45;5;1.00
34:255.42-260.55
68:51.29-56.54
37:100.46-105.54
35:351.42-357.54
24:68.42-73.54

419;36;7;1.00
34:255.42-260.25
68:51.29-56.24
37:100.46-105.24
35:351.42-357.24
24:68.42-73.24
8:261.42-266.25
50:92.42-97.25

420;35;8;1.00
34:255.42-260.23
68:51.29-56.22
37:100.46-105.22
35:351.42-357.22
24:68.42-73.22
8:261.42-266.23
50:92.42-97.23
36:283.42-288.23

421;34;2;1.00
32:88.42-93.22
3:200.29-205.23

422;33;3;1.00
32:88.42-93.12
3:200.29-205.12
30:45.69-51.12

423;32;11;1.00
34:255.42-259.40
68:51.29-55.40
37:100.46-104.40
35:351.42-355.40
24:68.42-72.40
8:261.42-265.40
50:92.42-96.40
36:283.42-287.40
32:88.42-92.40
3:200.29-204.40
30:45.69-49.42

424;155;2;0.99
8:191.31-235.4
38:206.36-251.4

425;77;3;1.00
8:191.31-215.32
38:206.36-230.32
35:281.31-305.32

426;67;4;1.00
8:191.31-211.37
38:206.36-226.37
35:281.31-301.37
36:223.30-243.37

427;45;7;1.00
38:191.36-202.56
8:177.31-188.56
35:267.31-278.56
36:209.30-220.56
8:163.31-174.56
35:253.31-264.56
36:195.30-206.56

428;36;11;0.58
69:210.19-215.12
33:243.19-248.12
1:256.19-261.12
3:208.19-213.12
0:165.19-170.12
4:119.19-124.12
35:361.20-366.12
8:273.20-278.12
24:88.26-93.12
36:312.32-317.12
2:206.37-211.12

429;72;2;1.00
33:239.40-251.15
35:358.33-369.15

430;67;2;1.00
2:223.12-229.12
2:225.12-232.12

431;45;3;1.00
2:223.12-227.12
2:225.12-229.12
2:227.12-232.12

432;36;4;1.00
39:129.8-132.38
44:140.8-143.38
44:99.8-102.30
44:111.8-114.30

433;34;5;1.00
44:162.8-165.36
39:129.8-132.36
44:140.8-143.36
44:99.8-102.28
44:111.8-114.28

434;30;6;1.00
44:162.8-165.12
39:129.8-132.12
44:140.8-143.12
44:99.8-102.12
44:111.8-114.12
45:194.8-198.12

435;31;3;1.00
45:198.12-200.62
67:165.8-167.58
23:110.12-112.59

436;43;2;1.00
34:257.8-260.56
33:235.8-238.55

437;61;2;0.97
24:70.8-79.8
24:79.8-88.8

438;45;5;1.00
68:53.8-56.60
37:102.8-105.59
35:353.8-357.59
24:70.8-73.60
24:79.8-82.61

439;42;7;1.00
34:257.8-260.55
33:235.8-238.54
68:53.8-56.54
37:102.8-105.54
35:353.8-357.54
24:70.8-73.54
24:79.8-82.54

440;34;3;1.00
6:175.8-178.26
8:263.8-266.26
50:94.8-97.26

441;33;10;1.00
34:257.8-260.25
33:235.8-238.24
68:53.8-56.24
37:102.8-105.24
35:353.8-357.24
24:70.8-73.24
24:79.8-82.24
6:175.8-178.25
8:263.8-266.25
50:94.8-97.25

442;33;3;1.00
7:212.8-215.22
36:304.8-307.25
36:285.8-288.25

443;32;13;1.00
34:257.8-260.23
33:235.8-238.22
68:53.8-56.22
37:102.8-105.22
35:353.8-357.22
24:70.8-73.22
24:79.8-82.22
6:175.8-178.23
8:263.8-266.23
50:94.8-97.23
7:212.8-215.20
36:304.8-307.23
36:285.8-288.23

444;43;2;1.00
30:104.8-107.62
32:90.8-93.60

445;34;4;1.00
7:133.8-136.37
30:104.8-107.37
32:90.8-93.35
30:77.12-80.37

446;31;5;1.00
7:133.8-136.24
30:104.8-107.24
32:90.8-93.22
30:77.12-80.27
3:202.8-205.23

447;30;6;1.00
7:133.8-136.12
30:104.8-107.12
32:90.8-93.12
30:77.12-80.16
3:202.8-205.12
30:47.8-51.12

448;30;8;1.00
58:62.8-66.44
61:67.8-71.48
56:60.8-64.50
57:66.8-70.50
59:67.8-71.46
62:62.8-66.52
55:57.8-61.44
35:398.12-402.50

449;32;4;1.00
51:125.33-132.21
1:152.30-159.21
6:97.30-104.21
5:106.30-113.21

450;57;3;1.00
51:132.33-146.40
52:122.33-136.40
2:122.33-137.51

451;95;6;1.00
0:90.30-114.16
1:159.30-182.16
3:119.33-142.16
6:104.30-127.16
5:113.30-136.16
53:113.33-136.16

452;66;7;1.00
0:90.30-104.41
1:159.30-172.41
3:119.33-132.41
6:104.30-117.41
5:113.30-126.41
53:113.33-126.42
8:109.30-122.42

453;34;10;1.00
51:132.33-139.45
52:122.33-129.45
2:122.33-129.46
0:90.30-98.34
1:159.30-166.35
3:119.33-126.35
6:104.30-111.34
5:113.30-120.34
53:113.33-120.35
8:109.30-116.34

454;41;2;1.00
7:208.14-214.54
7:104.12-110.54

455;39;3;1.00
7:208.14-214.47
7:104.12-110.47
7:188.14-194.47

456;73;2;1.00
64:67.8-76.8
64:65.8-73.8

457;55;3;1.00
64:69.8-76.8
64:67.8-73.8
64:65.8-71.8

458;37;4;1.00
64:71.8-76.8
64:69.8-73.8
64:67.8-71.8
64:65.8-69.8

459;36;2;1.00
35:113.8-118.8
35:99.8-105.8

460;48;2;0.69
51:244.8-255.4
52:233.8-244.4

461;37;3;0.59
32:103.8-108.28
51:244.8-249.28
52:233.8-238.28

462;33;2;0.94
3:73.8-79.31
8:74.8-80.22

463;31;2;1.00
40:67.8-73.8
40:61.8-67.8

464;30;2;0.67
33:91.8-98.8
33:84.8-91.8

465;33;6;0.55
3:95.8-101.8
2:79.8-85.8
1:111.8-117.8
53:91.8-97.8
67:72.8-78.8
5:75.8-82.8

466;60;2;0.83
24:119.12-129.34
24:99.12-110.34

