32800 32400 32300 32200 32100 #SUP: 17
600 700 6800 #SUP: 17
600 700 39500 #SUP: 18
600 700 500 39500 #SUP: 17
600 700 500 #SUP: 19
600 700 #SUP: 20
32800 32400 32300 32200 #SUP: 32
32800 32400 32300 #SUP: 33
32800 32400 #SUP: 35
32800 #SUP: 43
