0;6
6,7,68,167,328,395,465,
1;184,12.74
2;191,14.83
3;184,20.58
5;184,16.61
53;184,16.23
67;184,17.93

1;6
6,7,68,167,226,328,389,395,411,451,452,453,
0;169,20.84
1;169,11.70
3;169,18.90
5;169,15.25
6;169,18.11
53;169,14.90

2;6
328,439,441,443,
24;73,10.38
33;73,6.23
34;73,7.24
35;73,3.89
37;73,14.54
68;73,26.55

3;6
5,6,7,12,13,14,15,15,16,16,17,17,76,77,77,77,87,88,165,166,174,178,321,322,323,324,328,394,395,
8;303,24.47
34;304,30.16
35;303,16.13
36;303,17.92
38;337,27.44
45;292,29.14

4;6
0,1,5,6,7,9,10,11,66,68,150,151,167,169,227,228,328,386,387,388,389,395,396,397,398,399,409,
0;262,32.31
1;262,18.14
3;262,29.31
33;262,22.37
69;262,22.30
70;262,21.30

5;6
160,328,368,369,370,419,420,423,441,443,
8;73,5.90
24;73,10.38
34;73,7.24
35;73,3.89
37;73,14.54
50;73,16.37

6;6
5,6,7,151,319,320,321,322,323,324,328,351,354,395,
1;241,16.69
8;248,20.03
33;241,20.58
34;248,24.60
35;248,13.21
36;248,14.67

7;6
5,6,7,74,75,76,77,323,324,328,342,345,395,
22;191,32.05
34;232,23.02
36;228,13.48
38;228,18.57
45;221,22.06
67;191,18.62

8;6
5,6,7,68,167,245,318,320,321,322,323,324,328,395,
0;215,26.51
5;215,19.40
6;215,23.04
45;211,21.06
67;215,20.96
69;215,18.30

9;6
258,308,309,311,312,313,322,323,324,328,448,
56;85,33.60
57;85,29.31
58;85,31.84
59;85,28.72
61;85,30.04
62;85,32.44

10;6
283,284,324,328,428,
0;104,12.82
1;104,7.20
3;104,11.63
4;104,13.23
33;104,8.88
69;104,8.85

11;6
257,258,312,313,322,323,324,328,448,
55;87,36.55
56;87,34.39
57;87,30.00
59;87,29.39
61;87,30.74
62;87,33.21

12;6
253,328,
0;63,7.77
1;63,4.36
33;63,5.38
39;63,11.35
64;63,10.41
69;63,5.36

13;6
5,6,7,17,76,76,77,77,151,169,177,178,328,395,
8;357,28.84
33;276,23.57
35;357,19.01
36;357,21.11
69;276,23.49
70;276,22.44

14;6
6,7,87,88,151,163,328,395,
8;205,16.56
34;235,23.31
35;205,10.92
36;205,12.12
38;205,16.69
53;198,17.46

15;6
5,6,7,151,154,169,182,284,324,328,395,428,
0;258,31.81
3;258,28.86
8;265,21.41
33;258,22.03
35;265,14.11
69;258,21.96

16;6
100,101,160,322,323,324,328,369,370,420,423,443,
8;81,6.54
24;81,11.52
34;81,8.04
35;81,4.31
36;113,6.68
50;81,18.16

17;6
5,6,7,62,63,64,68,167,226,324,328,336,337,395,411,452,453,
0;214,26.39
1;246,17.04
3;214,23.94
5;246,22.20
6;246,26.37
8;212,17.12

18;6
6,7,11,66,68,151,167,226,328,395,399,411,452,453,
0;210,25.89
1;210,14.54
3;210,23.49
6;210,22.51
8;217,17.53
53;210,18.52

19;7
6,7,68,167,226,328,395,411,452,453,
0;169,20.84
1;169,11.70
3;169,18.90
5;169,15.25
6;169,18.11
8;176,14.22
53;169,14.90

20;7
160,328,419,420,423,441,443,
8;67,5.41
24;67,9.53
34;67,6.65
35;67,3.57
37;67,13.35
50;67,15.02
68;67,24.36

21;6
160,322,323,324,328,419,420,423,441,443,
8;74,5.98
24;74,10.53
34;74,7.34
35;74,3.94
50;74,16.59
68;74,26.91

22;7
1,5,6,7,9,10,11,66,68,150,151,167,169,328,387,388,389,395,396,397,398,399,409,
0;242,29.84
1;242,16.76
3;242,27.07
6;242,25.94
33;242,20.67
69;242,20.60
70;242,19.67

23;6
1,5,6,7,9,10,11,66,68,150,151,167,169,324,328,387,388,389,395,396,397,398,399,409,
0;246,30.33
1;246,17.04
3;246,27.52
6;246,26.37
33;246,21.01
69;246,20.94

24;7
160,328,369,370,420,423,443,
8;72,5.82
24;72,10.24
34;72,7.14
35;72,3.83
36;104,6.15
37;72,14.34
50;72,16.14

25;6
5,6,7,63,64,68,167,226,324,328,336,337,395,409,453,
0;227,27.99
1;259,17.94
2;240,18.63
3;227,25.39
5;246,22.20
6;259,27.76

26;7
5,6,7,63,64,68,167,226,324,328,336,337,395,453,
0;214,26.39
1;246,17.04
2;227,17.62
3;214,23.94
5;246,22.20
6;246,26.37
8;212,17.12

27;6
5,6,7,63,64,68,167,226,322,323,324,328,336,337,395,453,
0;217,26.76
1;249,17.24
2;230,17.86
5;249,22.47
6;249,26.69
8;215,17.37

28;7
309,311,312,313,322,323,324,328,
32;45,7.01
56;45,17.79
57;45,15.52
58;45,16.85
59;45,15.20
61;45,15.90
62;45,17.18

29;7
258,312,313,322,323,324,328,448,
55;79,33.19
56;79,31.23
57;79,27.24
58;79,29.59
59;79,26.69
61;79,27.92
62;79,30.15

30;7
5,6,7,68,167,245,322,323,324,328,395,
0;215,26.51
2;225,17.47
5;215,19.40
6;215,23.04
45;211,21.06
67;215,20.96
69;215,18.30

31;7
182,284,324,328,428,
0;94,11.59
3;94,10.51
4;94,11.96
8;94,7.59
33;94,8.03
35;94,5.01
69;94,8.00

32;7
101,160,322,323,324,328,370,423,
8;78,6.30
24;78,11.10
32;78,12.15
34;78,7.74
35;78,4.15
36;78,4.61
50;78,17.49

33;7
6,7,87,88,328,395,
8;150,12.12
34;180,17.86
35;150,7.99
36;150,8.87
38;150,12.21
45;150,14.97
53;143,12.61

34;6
0,1,5,6,7,68,167,324,328,395,409,428,
0;244,30.09
1;244,16.90
2;249,19.33
3;244,27.29
33;244,20.84
69;244,20.77

35;7
0,1,5,6,7,68,167,328,395,409,
0;204,25.15
1;204,14.13
2;209,16.23
3;204,22.82
33;204,17.42
69;204,17.36
70;204,16.59

36;8
322,323,324,328,448,
35;68,3.62
55;68,28.57
56;68,26.88
57;68,23.45
58;68,25.47
59;68,22.97
61;68,24.03
62;68,25.95

37;8
160,328,420,423,443,
8;66,5.33
24;66,9.39
34;66,6.55
35;66,3.51
36;98,5.80
37;66,13.15
50;66,14.80
68;66,24.00

38;7
160,322,323,324,328,420,423,443,
8;73,5.90
24;73,10.38
34;73,7.24
35;73,3.89
36;105,6.21
50;73,16.37
68;73,26.55

39;6
5,6,7,68,167,226,320,321,322,323,324,328,395,411,
0;198,24.41
1;198,13.71
5;198,17.87
6;198,21.22
8;196,15.83
45;186,18.56

40;7
5,6,7,68,167,226,324,328,395,411,
0;181,22.32
1;181,12.53
3;181,20.25
5;181,16.34
6;181,19.40
8;179,14.46
45;169,16.87

41;8
6,7,68,167,226,328,395,411,
0;159,19.61
1;159,11.01
3;159,17.79
5;159,14.35
6;159,17.04
8;166,13.41
45;165,16.47
53;159,14.02

42;6
5,6,7,165,166,320,321,322,323,324,328,384,385,
8;110,8.89
35;110,5.86
36;110,6.51
45;110,10.98
51;138,11.34
52;138,12.01

43;7
5,6,7,165,166,321,322,323,324,328,384,385,
8;103,8.32
35;103,5.48
36;103,6.09
38;103,8.39
45;103,10.28
51;131,10.76
52;131,11.40

44;6
5,6,7,68,165,166,322,323,324,328,384,385,
2;134,10.40
8;130,10.50
38;130,10.59
45;134,13.37
51;162,13.31
52;162,14.10

45;6
5,6,7,165,166,322,323,324,328,384,385,395,
2;144,11.18
8;144,11.63
35;144,7.67
36;144,8.52
38;144,11.73
45;133,13.27

46;8
5,6,7,165,166,322,323,324,328,384,385,
2;96,7.45
8;96,7.75
35;96,5.11
36;96,5.68
38;96,7.82
45;96,9.58
51;124,10.19
52;124,10.79

47;8
160,328,370,423,
8;69,5.57
24;69,9.82
32;69,10.75
34;69,6.85
35;69,3.67
36;69,4.08
37;69,13.75
50;69,15.47

48;7
322,323,324,328,337,
0;71,8.75
1;71,4.92
2;71,5.51
5;71,6.41
6;71,7.61
7;71,5.40
8;71,5.74

49;8
324,328,337,
0;68,8.38
1;68,4.71
2;68,5.28
3;68,7.61
5;68,6.14
6;68,7.29
7;68,5.18
8;68,5.49

50;6
5,6,7,165,166,319,320,321,322,323,324,328,
8;115,9.29
34;115,11.41
35;115,6.12
36;115,6.80
51;143,11.75
52;143,12.45

51;6
5,6,7,11,319,320,321,322,323,324,328,
1;146,10.11
8;146,11.79
33;146,12.47
34;139,13.79
36;146,8.63
51;174,14.30

52;6
5,6,7,68,319,320,321,322,323,324,328,
1;151,10.46
8;147,11.87
33;151,12.89
34;148,14.68
51;179,14.71
52;179,15.58

53;8
5,6,7,319,320,321,322,323,324,328,
1;113,7.83
8;113,9.13
33;113,9.65
34;113,11.21
35;113,6.02
36;113,6.68
51;141,11.59
52;141,12.27

54;6
5,6,7,9,10,11,66,68,151,167,169,227,228,284,324,328,395,397,398,399,428,
0;283,34.90
1;283,19.60
3;283,31.66
8;277,22.37
33;283,24.17
69;283,24.09

55;6
5,6,7,151,169,284,320,321,322,323,324,328,354,395,428,
0;312,38.47
1;312,21.61
8;319,25.77
33;312,26.64
35;319,16.99
69;312,26.55

56;7
5,6,7,151,169,284,324,328,395,428,
0;255,31.44
1;255,17.66
3;255,28.52
8;262,21.16
33;255,21.78
35;262,13.95
69;255,21.70

57;8
284,324,328,428,
0;92,11.34
1;92,6.37
3;92,10.29
4;92,11.70
8;92,7.43
33;92,7.86
35;92,4.90
69;92,7.83

58;6
5,6,7,9,10,11,66,68,151,167,169,227,228,321,322,323,324,328,395,397,398,399,
0;236,29.10
1;236,16.34
8;230,18.58
33;236,20.15
38;230,18.73
69;236,20.09

59;8
5,6,7,9,10,11,66,68,151,167,169,227,228,328,395,397,398,399,
0;222,27.37
1;222,15.37
3;222,24.83
8;216,17.45
33;222,18.96
38;216,17.59
69;222,18.89
70;222,18.05

60;7
5,6,7,9,10,11,66,68,151,167,169,227,228,324,328,395,397,398,399,
0;226,27.87
1;226,15.65
3;226,25.28
8;220,17.77
33;226,19.30
38;220,17.92
69;226,19.23

61;7
6,7,11,66,68,150,151,167,228,328,389,395,399,
0;197,24.29
1;197,13.64
3;197,22.04
33;197,16.82
53;197,17.37
69;197,16.77
70;197,16.02

62;8
6,7,11,66,68,150,151,167,328,389,395,399,
0;195,24.04
1;195,13.50
3;195,21.81
6;195,20.90
33;195,16.65
53;195,17.20
69;195,16.60
70;195,15.85

63;8
1,5,6,7,68,167,328,395,409,
0;182,22.44
1;182,12.60
2;189,14.67
3;182,20.36
6;182,19.51
33;182,15.54
69;182,15.49
70;182,14.80

64;7
1,5,6,7,68,167,324,328,395,409,
0;186,22.93
1;186,12.88
2;193,14.98
3;186,20.81
6;186,19.94
33;186,15.88
69;186,15.83

65;6
1,5,6,7,68,167,322,323,324,328,395,409,
0;189,23.30
1;189,13.09
2;196,15.22
6;189,20.26
33;189,16.14
69;189,16.09

66;6
321,322,323,324,328,441,443,
6;78,8.36
8;78,6.30
33;78,6.66
34;78,7.74
35;78,4.15
50;78,17.49

67;8
322,323,324,328,441,443,
6;71,7.61
8;71,5.74
24;71,10.10
33;71,6.06
34;71,7.04
35;71,3.78
50;71,15.92
68;71,25.82

68;9
328,441,443,
6;64,6.86
8;64,5.17
24;64,9.10
33;64,5.47
34;64,6.35
35;64,3.41
37;64,12.75
50;64,14.35
68;64,23.27

69;6
5,6,7,68,167,320,321,322,323,324,328,388,389,395,409,
0;203,25.03
1;203,14.06
5;222,20.04
6;203,21.76
33;203,17.34
69;203,17.28

70;8
5,6,7,68,167,328,388,389,395,409,
0;182,22.44
1;182,12.60
3;182,20.36
5;201,18.14
6;182,19.51
33;182,15.54
69;182,15.49
70;182,14.80

71;7
5,6,7,68,167,324,328,388,389,395,409,
0;186,22.93
1;186,12.88
3;186,20.81
5;205,18.50
6;186,19.94
33;186,15.88
69;186,15.83

72;9
5,6,7,68,167,328,395,409,
0;182,22.44
1;182,12.60
2;189,14.67
3;182,20.36
5;201,18.14
6;182,19.51
33;182,15.54
69;182,15.49
70;182,14.80

73;8
5,6,7,68,167,324,328,395,409,
0;186,22.93
1;186,12.88
2;193,14.98
3;186,20.81
5;205,18.50
6;186,19.94
33;186,15.88
69;186,15.83

74;7
5,6,7,68,167,322,323,324,328,395,409,
0;189,23.30
1;189,13.09
2;196,15.22
5;208,18.77
6;189,20.26
33;189,16.14
69;189,16.09

75;6
5,6,7,9,10,11,66,68,151,167,169,320,321,322,323,324,328,395,397,398,399,
0;241,29.72
1;241,16.69
6;241,25.83
8;237,19.14
33;241,20.58
69;241,20.51

76;7
5,6,7,9,10,11,66,68,151,167,169,321,322,323,324,328,395,397,398,399,
0;234,28.85
1;234,16.20
6;234,25.08
8;230,18.58
33;234,19.98
38;230,18.73
69;234,19.91

77;9
5,6,7,9,10,11,66,68,151,167,169,328,395,397,398,399,
0;220,27.13
1;220,15.24
3;220,24.61
6;220,23.58
8;216,17.45
33;220,18.79
38;216,17.59
69;220,18.72
70;220,17.89

78;8
5,6,7,9,10,11,66,68,151,167,169,324,328,395,397,398,399,
0;224,27.62
1;224,15.51
3;224,25.06
6;224,24.01
8;220,17.77
33;224,19.13
38;220,17.92
69;224,19.06

79;6
5,6,7,17,76,77,77,151,178,320,321,322,323,324,328,354,395,
8;339,27.38
33;302,25.79
34;339,33.63
35;339,18.05
36;339,20.05
69;302,25.70

80;6
5,6,7,73,74,75,76,77,320,321,322,323,324,328,345,354,395,
33;296,25.28
34;287,28.47
35;333,17.73
36;283,16.74
67;246,23.98
69;296,25.19

81;6
5,6,7,10,11,66,68,151,167,320,321,322,323,324,328,354,395,398,399,
0;275,33.91
1;275,19.04
8;271,21.89
33;275,23.48
34;271,26.88
69;275,23.40

82;6
5,6,7,9,10,11,151,169,320,321,322,323,324,328,354,395,428,
0;301,37.11
1;301,20.84
8;308,24.88
33;301,25.70
36;308,18.21
69;301,25.62

83;7
5,6,7,151,169,320,321,322,323,324,328,354,395,428,
0;291,35.88
1;291,20.15
8;298,24.07
33;291,24.85
35;298,15.87
36;298,17.62
69;291,24.77

84;7
5,6,7,76,77,320,321,322,323,324,328,354,395,
8;260,21.00
33;223,19.04
34;264,26.19
35;260,13.84
36;260,15.38
67;223,21.73
69;223,18.98

85;7
5,6,7,10,11,151,320,321,322,323,324,328,354,395,
0;259,31.94
1;259,17.94
8;266,21.49
33;259,22.12
34;255,25.30
36;266,15.73
69;259,22.04

86;8
5,6,7,151,320,321,322,323,324,328,354,395,
0;222,27.37
1;222,15.37
8;229,18.50
33;222,18.96
34;229,22.72
35;229,12.19
36;229,13.54
69;222,18.89

87;7
5,6,7,68,167,320,321,322,323,324,328,354,395,
0;230,28.36
1;230,15.93
8;228,18.42
33;230,19.64
34;234,23.21
67;230,22.42
69;230,19.57

88;9
5,6,7,320,321,322,323,324,328,354,395,
0;187,23.06
1;187,12.95
8;194,15.67
33;187,15.97
34;194,19.25
35;194,10.33
36;194,11.47
67;187,18.23
69;187,15.91

89;9
311,312,313,322,323,324,328,
24;44,6.26
32;44,6.85
56;44,17.39
57;44,15.17
58;44,16.48
59;44,14.86
60;44,12.75
61;44,15.55
62;44,16.79

90;9
6,7,11,66,68,151,167,228,328,395,399,
0;194,23.92
1;194,13.43
3;194,21.70
8;201,16.24
33;194,16.57
38;201,16.37
53;194,17.11
69;194,16.51
70;194,15.77

91;8
6,7,68,167,226,328,395,453,
0;169,20.84
1;169,11.70
2;182,14.13
3;169,18.90
5;169,15.25
6;169,18.11
8;176,14.22
53;169,14.90

92;8
5,6,7,68,167,226,324,328,395,
0;175,21.58
1;175,12.12
2;182,14.13
3;175,19.57
5;175,15.79
6;175,18.76
8;173,13.97
45;169,16.87

93;7
5,6,7,68,167,226,322,323,324,328,395,
0;178,21.95
1;178,12.33
2;185,14.36
5;178,16.06
6;178,19.08
8;176,14.22
45;172,17.17

94;9
6,7,68,167,226,328,395,
0;153,18.87
1;153,10.60
2;160,12.42
3;153,17.11
5;153,13.81
6;153,16.40
8;160,12.92
45;160,15.97
53;153,13.49

95;6
5,6,7,17,73,74,75,76,77,77,151,169,178,328,345,395,
33;303,25.88
35;384,20.45
36;334,19.75
38;334,27.20
69;303,25.79
70;303,24.63

96;6
5,6,7,10,11,17,73,74,75,76,77,77,151,178,328,345,395,
33;307,26.22
34;327,32.44
36;338,19.99
38;338,27.52
69;307,26.13
70;307,24.96

97;6
5,6,7,17,73,74,75,76,77,77,151,178,321,322,323,324,328,345,395,
33;284,24.25
34;315,31.25
35;365,19.44
36;315,18.63
38;315,25.65
69;284,24.17

98;7
5,6,7,17,73,74,75,76,77,77,151,178,328,345,395,
33;270,23.06
34;301,29.86
35;351,18.69
36;301,17.80
38;301,24.51
69;270,22.98
70;270,21.95

99;6
5,6,7,10,11,17,66,68,76,77,77,151,167,178,328,395,398,399,
8;320,25.85
33;294,25.11
34;320,31.75
38;320,26.06
69;294,25.02
70;294,23.90

100;6
5,6,7,17,74,75,76,77,77,178,320,321,322,323,324,328,345,395,
33;256,21.86
34;287,28.47
35;337,17.94
36;287,16.97
45;280,27.94
69;256,21.79

101;6
5,6,7,17,68,74,75,76,77,77,167,178,328,345,395,
33;278,23.74
34;306,30.36
38;300,24.43
45;302,30.14
69;278,23.66
70;278,22.60

102;7
5,6,7,17,74,75,76,77,77,178,321,322,323,324,328,345,395,
33;249,21.26
34;280,27.78
35;330,17.57
36;280,16.56
38;280,22.80
45;273,27.25
69;249,21.19

103;8
5,6,7,17,74,75,76,77,77,178,328,345,395,
33;235,20.07
34;266,26.39
35;316,16.83
36;266,15.73
38;266,21.66
45;259,25.85
69;235,20.00
70;235,19.11

104;6
5,6,7,9,10,11,17,76,77,77,151,169,178,328,395,
8;321,25.93
33;284,24.25
36;321,18.98
38;321,26.14
69;284,24.17
70;284,23.09

105;6
5,6,7,17,76,77,77,151,169,178,321,322,323,324,328,395,
8;325,26.25
33;288,24.59
35;325,17.31
36;325,19.22
38;325,26.47
69;288,24.51

106;7
5,6,7,17,76,77,77,151,169,178,328,395,
8;311,25.12
33;274,23.40
35;311,16.56
36;311,18.39
38;311,25.33
69;274,23.32
70;274,22.28

107;6
5,6,7,10,11,17,76,77,77,151,178,321,322,323,324,328,395,
8;329,26.58
33;292,24.94
34;318,31.55
36;329,19.46
38;329,26.79
69;292,24.85

108;7
5,6,7,10,11,17,76,77,77,151,178,328,395,
8;315,25.44
33;278,23.74
34;304,30.16
36;315,18.63
38;315,25.65
69;278,23.66
70;278,22.60

109;7
5,6,7,17,76,77,77,151,178,321,322,323,324,328,395,
8;292,23.59
33;255,21.78
34;292,28.97
35;292,15.55
36;292,17.27
38;292,23.78
69;255,21.70

110;8
5,6,7,17,76,77,77,151,178,328,395,
8;278,22.46
33;241,20.58
34;278,27.58
35;278,14.80
36;278,16.44
38;278,22.64
69;241,20.51
70;241,19.59

111;7
5,6,7,17,76,77,77,178,320,321,322,323,324,328,395,
8;264,21.32
33;227,19.39
34;264,26.19
35;264,14.06
36;264,15.61
45;253,25.25
69;227,19.32

112;6
5,6,7,17,68,76,77,77,167,178,321,322,323,324,328,395,
8;291,23.51
33;263,22.46
34;297,29.46
38;291,23.70
45;289,28.84
69;263,22.38

113;7
5,6,7,17,68,76,77,77,167,178,328,395,
8;277,22.37
33;249,21.26
34;283,28.08
38;277,22.56
45;275,27.45
69;249,21.19
70;249,20.24

114;8
5,6,7,17,76,77,77,178,321,322,323,324,328,395,
8;257,20.76
33;220,18.79
34;257,25.50
35;257,13.68
36;257,15.20
38;257,20.93
45;246,24.55
69;220,18.72

115;9
5,6,7,17,76,77,77,178,328,395,
8;243,19.63
33;206,17.59
34;243,24.11
35;243,12.94
36;243,14.37
38;243,19.79
45;232,23.15
69;206,17.53
70;206,16.75

116;7
5,6,7,165,166,320,321,322,323,324,328,
8;108,8.72
34;108,10.71
35;108,5.75
36;108,6.39
45;108,10.78
51;136,11.18
52;136,11.84

117;6
5,6,7,68,165,166,321,322,323,324,328,
8;135,10.90
34;134,13.29
38;135,10.99
45;139,13.87
51;167,13.72
52;167,14.53

118;8
5,6,7,165,166,321,322,323,324,328,
8;101,8.16
34;101,10.02
35;101,5.38
36;101,5.97
38;101,8.22
45;101,10.08
51;129,10.60
52;129,11.23

119;7
5,6,7,68,165,166,322,323,324,328,
2;132,10.25
8;128,10.34
34;127,12.60
38;128,10.42
45;132,13.17
51;160,13.15
52;160,13.93

120;7
5,6,7,165,166,322,323,324,328,395,
2;142,11.02
8;142,11.47
34;142,14.09
35;142,7.56
36;142,8.40
38;142,11.56
45;131,13.07

121;9
5,6,7,165,166,322,323,324,328,
2;94,7.30
8;94,7.59
34;94,9.33
35;94,5.01
36;94,5.56
38;94,7.65
45;94,9.38
51;122,10.02
52;122,10.62

122;6
5,6,7,68,73,74,75,76,77,167,328,345,395,
33;278,23.74
34;266,26.39
38;256,20.85
67;228,22.22
69;278,23.66
70;278,22.60

123;7
5,6,7,73,74,75,76,77,321,322,323,324,328,345,395,
33;249,21.26
34;240,23.81
35;286,15.23
36;236,13.96
38;236,19.22
67;199,19.40
69;249,21.19

124;9
5,6,7,73,74,75,76,77,328,345,395,
22;185,31.04
33;235,20.07
34;226,22.42
35;272,14.48
36;222,13.13
38;222,18.08
67;185,18.03
69;235,20.00
70;235,19.11

125;8
5,6,7,73,74,75,76,77,323,324,328,345,395,
22;191,32.05
33;241,20.58
34;232,23.02
35;278,14.80
36;228,13.48
38;228,18.57
67;191,18.62
69;241,20.51

126;6
5,6,7,11,66,68,324,328,453,
0;165,20.35
1;165,11.43
3;165,18.46
6;165,17.68
8;161,13.00
51;181,14.87

127;7
6,7,11,66,68,328,453,
0;143,17.63
1;143,9.90
3;143,16.00
6;143,15.33
8;143,11.55
51;159,13.06
53;143,12.61

128;7
5,6,7,68,320,321,322,323,324,328,453,
0;178,21.95
1;178,12.33
5;178,16.06
6;178,19.08
8;174,14.05
51;194,15.94
52;194,16.88

129;9
5,6,7,68,324,328,453,
0;161,19.85
1;161,11.15
2;149,11.57
3;161,18.01
5;161,14.53
6;161,17.26
8;157,12.68
51;177,14.54
52;177,15.40

130;8
5,6,7,68,322,323,324,328,453,
0;164,20.22
1;164,11.36
2;152,11.80
5;164,14.80
6;164,17.58
8;160,12.92
51;180,14.79
52;180,15.67

131;10
6,7,68,328,453,
0;139,17.14
1;139,9.63
2;127,9.86
3;139,15.55
5;139,12.55
6;139,14.90
8;139,11.23
51;155,12.74
52;155,13.49
53;139,12.26

132;7
5,6,7,10,11,66,68,151,167,320,321,322,323,324,328,395,398,399,
0;235,28.98
1;235,16.27
6;235,25.19
8;231,18.66
33;235,20.07
34;231,22.92
69;235,20.00

133;8
5,6,7,10,11,66,68,151,167,321,322,323,324,328,395,398,399,
0;228,28.11
1;228,15.79
6;228,24.44
8;224,18.09
33;228,19.47
34;224,22.22
38;224,18.24
69;228,19.40

134;10
5,6,7,10,11,66,68,151,167,328,395,398,399,
0;214,26.39
1;214,14.82
3;214,23.94
6;214,22.94
8;210,16.96
33;214,18.27
34;210,20.83
38;210,17.10
69;214,18.21
70;214,17.40

135;9
5,6,7,10,11,66,68,151,167,324,328,395,398,399,
0;218,26.88
1;218,15.10
3;218,24.38
6;218,23.37
8;214,17.29
33;218,18.62
34;214,21.23
38;214,17.43
69;218,18.55

136;7
5,6,7,68,167,320,321,322,323,324,328,388,389,395,
0;190,23.43
1;190,13.16
5;190,17.15
6;190,20.36
33;190,16.23
67;190,18.52
69;190,16.17

137;9
5,6,7,68,167,328,388,389,395,
0;169,20.84
1;169,11.70
3;169,18.90
5;169,15.25
6;169,18.11
33;169,14.43
67;169,16.47
69;169,14.38
70;169,13.74

138;8
5,6,7,68,167,324,328,388,389,395,
0;173,21.33
1;173,11.98
3;173,19.35
5;173,15.61
6;173,18.54
33;173,14.77
67;173,16.86
69;173,14.72

139;10
5,6,7,328,388,389,395,
0;126,15.54
1;126,8.73
3;126,14.09
5;126,11.37
6;126,13.50
22;126,21.14
33;126,10.76
67;126,12.28
69;126,10.72
70;126,10.24

140;9
5,6,7,324,328,388,389,395,
0;130,16.03
1;130,9.00
3;130,14.54
5;130,11.73
6;130,13.93
22;130,21.81
33;130,11.10
67;130,12.67
69;130,11.06

141;8
5,6,7,323,324,328,388,389,395,
0;132,16.28
1;132,9.14
5;132,11.91
6;132,14.15
22;132,22.15
33;132,11.27
67;132,12.87
69;132,11.23

142;7
5,6,7,74,75,76,77,320,321,322,323,324,328,345,395,
33;256,21.86
34;247,24.50
35;293,15.60
36;243,14.37
45;236,23.55
67;206,20.08
69;256,21.79

143;6
5,6,7,68,74,75,76,77,167,321,322,323,324,328,345,395,
33;292,24.94
34;280,27.78
38;270,21.99
45;272,27.15
67;242,23.59
69;292,24.85

144;7
5,6,7,68,74,75,76,77,167,328,345,395,
33;278,23.74
34;266,26.39
38;256,20.85
45;258,25.75
67;228,22.22
69;278,23.66
70;278,22.60

145;8
5,6,7,74,75,76,77,321,322,323,324,328,345,395,
33;249,21.26
34;240,23.81
35;286,15.23
36;236,13.96
38;236,19.22
45;229,22.85
67;199,19.40
69;249,21.19

146;10
5,6,7,74,75,76,77,328,345,395,
22;185,31.04
33;235,20.07
34;226,22.42
35;272,14.48
36;222,13.13
38;222,18.08
45;215,21.46
67;185,18.03
69;235,20.00
70;235,19.11

147;9
5,6,7,74,75,76,77,323,324,328,345,395,
22;191,32.05
33;241,20.58
34;232,23.02
35;278,14.80
36;228,13.48
38;228,18.57
45;221,22.06
67;191,18.62
69;241,20.51

148;10
312,313,322,323,324,328,
24;42,5.97
32;42,6.54
55;42,17.65
56;42,16.60
57;42,14.48
58;42,15.73
59;42,14.19
60;42,12.17
61;42,14.84
62;42,16.03

149;7
5,6,7,9,10,11,151,169,324,328,395,428,
0;244,30.09
1;244,16.90
3;244,27.29
8;251,20.27
33;244,20.84
36;251,14.84
69;244,20.77

150;7
5,6,7,9,10,11,151,169,320,321,322,323,324,328,395,
0;225,27.74
1;225,15.58
6;225,24.12
8;232,18.74
33;225,19.21
36;232,13.72
69;225,19.15

151;8
5,6,7,9,10,11,151,169,321,322,323,324,328,395,
0;218,26.88
1;218,15.10
6;218,23.37
8;225,18.17
33;218,18.62
36;225,13.31
38;225,18.32
69;218,18.55

152;10
5,6,7,9,10,11,151,169,328,395,
0;204,25.15
1;204,14.13
3;204,22.82
6;204,21.86
8;211,17.04
33;204,17.42
36;211,12.48
38;211,17.18
69;204,17.36
70;204,16.59

153;9
5,6,7,9,10,11,151,169,324,328,395,
0;208,25.65
1;208,14.40
3;208,23.27
6;208,22.29
8;215,17.37
33;208,17.76
36;215,12.71
38;215,17.51
69;208,17.70

154;6
5,6,7,151,320,321,322,323,324,328,395,443,
6;214,22.94
8;221,17.85
33;214,18.27
34;221,21.92
35;221,11.77
36;221,13.07

155;7
321,322,323,324,328,443,
6;77,8.25
8;77,6.22
33;77,6.58
34;77,7.64
35;77,4.10
36;77,4.55
50;77,17.26

156;10
322,323,324,328,443,
6;70,7.50
7;70,5.33
8;70,5.65
24;70,9.96
33;70,5.98
34;70,6.94
35;70,3.73
36;70,4.14
50;70,15.70
68;70,25.45

157;11
328,443,
6;63,6.75
7;63,4.79
8;63,5.09
24;63,8.96
33;63,5.38
34;63,6.25
35;63,3.35
36;63,3.73
37;63,12.55
50;63,14.13
68;63,22.91

158;8
5,6,7,151,169,324,328,395,428,
0;234,28.85
1;234,16.20
3;234,26.17
8;241,19.47
33;234,19.98
35;241,12.83
36;241,14.25
69;234,19.91

159;7
5,6,7,68,167,324,328,395,428,
0;209,25.77
1;209,14.47
2;216,16.77
3;209,23.38
8;207,16.72
33;209,17.85
69;209,17.79

160;6
5,6,7,68,167,322,323,324,328,395,428,
0;212,26.14
1;212,14.68
2;219,17.00
8;210,16.96
33;212,18.10
69;212,18.04

161;9
5,6,7,324,328,395,428,
0;166,20.47
1;166,11.50
2;173,13.43
3;166,18.57
8;173,13.97
33;166,14.18
35;173,9.21
36;173,10.23
69;166,14.13

162;8
5,6,7,322,323,324,328,395,428,
0;169,20.84
1;169,11.70
2;176,13.66
8;176,14.22
33;169,14.43
35;176,9.37
36;176,10.41
69;169,14.38

163;9
322,323,324,328,428,
0;74,9.12
1;74,5.12
2;74,5.75
8;74,5.98
24;74,10.53
33;74,6.32
35;74,3.94
36;74,4.38
69;74,6.30

164;11
324,328,428,
0;71,8.75
1;71,4.92
2;71,5.51
3;71,7.94
4;71,9.03
8;71,5.74
24;71,10.10
33;71,6.06
35;71,3.78
36;71,4.20
69;71,6.04

165;11
160,423,
3;32,3.58
8;32,2.58
24;32,4.55
30;63,6.33
32;32,4.98
34;32,3.17
35;32,1.70
36;32,1.89
37;32,6.37
50;32,7.17
68;32,11.64

166;10
160,328,423,
3;63,7.05
8;63,5.09
24;63,8.96
32;63,9.81
34;63,6.25
35;63,3.35
36;63,3.73
37;63,12.55
50;63,14.13
68;63,22.91

167;9
160,324,328,423,
3;67,7.49
8;67,5.41
24;67,9.53
32;67,10.44
34;67,6.65
35;67,3.57
36;67,3.96
50;67,15.02
68;67,24.36

168;8
160,322,323,324,328,423,
8;70,5.65
24;70,9.96
32;70,10.90
34;70,6.94
35;70,3.73
36;70,4.14
50;70,15.70
68;70,25.45

169;11
6,7,11,66,68,151,167,328,395,399,
0;192,23.67
1;192,13.30
3;192,21.48
6;192,20.58
8;199,16.07
33;192,16.40
34;192,19.05
38;199,16.21
53;192,16.93
69;192,16.34
70;192,15.61

170;10
6,7,68,167,328,389,395,
0;151,18.62
1;151,10.46
3;151,16.89
5;151,13.63
6;151,16.18
33;151,12.89
53;151,13.32
67;151,14.72
69;151,12.85
70;151,12.28

171;11
6,7,328,389,395,
0;108,13.32
1;108,7.48
3;108,12.08
5;108,9.75
6;108,11.58
22;108,18.12
33;108,9.22
53;108,9.52
67;108,10.53
69;108,9.19
70;108,8.78

172;8
5,6,7,151,169,320,321,322,323,324,328,395,
0;215,26.51
1;215,14.89
6;215,23.04
8;222,17.93
33;215,18.36
35;222,11.82
36;222,13.13
69;215,18.30

173;9
5,6,7,151,169,321,322,323,324,328,395,
0;208,25.65
1;208,14.40
6;208,22.29
8;215,17.37
33;208,17.76
35;215,11.45
36;215,12.71
38;215,17.51
69;208,17.70

174;11
5,6,7,151,169,328,395,
0;194,23.92
1;194,13.43
3;194,21.70
6;194,20.79
8;201,16.24
33;194,16.57
35;201,10.70
36;201,11.89
38;201,16.37
69;194,16.51
70;194,15.77

175;10
5,6,7,151,169,324,328,395,
0;198,24.41
1;198,13.71
3;198,22.15
6;198,21.22
8;205,16.56
33;198,16.91
35;205,10.92
36;205,12.12
38;205,16.69
69;198,16.85

176;6
5,6,7,68,76,77,167,320,321,322,323,324,328,395,
8;254,20.52
33;226,19.30
34;264,26.19
45;252,25.15
67;226,22.03
69;226,19.23

177;8
5,6,7,76,77,320,321,322,323,324,328,395,
8;220,17.77
33;183,15.63
34;224,22.22
35;220,11.71
36;220,13.01
45;209,20.86
67;183,17.84
69;183,15.57

178;7
5,6,7,68,76,77,167,321,322,323,324,328,395,
8;247,19.95
33;219,18.70
34;257,25.50
38;247,20.11
45;245,24.45
67;219,21.35
69;219,18.64

179;8
5,6,7,68,76,77,167,328,395,
8;233,18.82
33;205,17.51
34;243,24.11
38;233,18.97
45;231,23.05
67;205,19.98
69;205,17.45
70;205,16.67

180;9
5,6,7,76,77,321,322,323,324,328,395,
8;213,17.21
33;176,15.03
34;217,21.53
35;213,11.34
36;213,12.60
38;213,17.35
45;202,20.16
67;176,17.15
69;176,14.98

181;11
5,6,7,76,77,328,395,
8;199,16.07
22;162,27.18
33;162,13.83
34;203,20.14
35;199,10.60
36;199,11.77
38;199,16.21
45;188,18.76
67;162,15.79
69;162,13.79
70;162,13.17

182;10
5,6,7,76,77,323,324,328,395,
8;205,16.56
22;168,28.19
33;168,14.35
34;209,20.73
35;205,10.92
36;205,12.12
38;205,16.69
45;194,19.36
67;168,16.37
69;168,14.30

183;8
5,6,7,10,11,151,320,321,322,323,324,328,395,
0;219,27.00
1;219,15.17
6;219,23.47
8;226,18.26
33;219,18.70
34;215,21.33
36;226,13.36
69;219,18.64

184;9
5,6,7,10,11,151,321,322,323,324,328,395,
0;212,26.14
1;212,14.68
6;212,22.72
8;219,17.69
33;212,18.10
34;208,20.63
36;219,12.95
38;219,17.83
69;212,18.04

185;11
5,6,7,10,11,151,328,395,
0;198,24.41
1;198,13.71
3;198,22.15
6;198,21.22
8;205,16.56
33;198,16.91
34;194,19.25
36;205,12.12
38;205,16.69
69;198,16.85
70;198,16.10

186;10
5,6,7,10,11,151,324,328,395,
0;202,24.91
1;202,13.99
3;202,22.60
6;202,21.65
8;209,16.88
33;202,17.25
34;198,19.64
36;209,12.36
38;209,17.02
69;202,17.19

187;8
5,6,7,11,66,68,320,321,322,323,324,328,
0;148,18.25
1;148,10.25
6;148,15.86
8;144,11.63
33;148,12.64
34;141,13.99
51;176,14.46
69;148,12.60

188;9
5,6,7,11,66,68,321,322,323,324,328,
0;141,17.39
1;141,9.76
6;141,15.11
8;137,11.07
33;141,12.04
34;134,13.29
38;137,11.16
51;169,13.89
69;141,12.00

189;11
5,6,7,11,66,68,328,
0;127,15.66
1;127,8.80
3;127,14.21
6;127,13.61
8;123,9.94
33;127,10.85
34;120,11.90
38;123,10.02
51;155,12.74
69;127,10.81
70;127,10.33

190;10
5,6,7,11,66,68,324,328,
0;131,16.15
1;131,9.07
3;131,14.65
6;131,14.04
8;127,10.26
33;131,11.19
34;124,12.30
38;127,10.34
51;159,13.06
69;131,11.15

191;12
6,7,11,66,68,328,
0;109,13.44
1;109,7.55
3;109,12.19
6;109,11.68
8;109,8.80
33;109,9.31
34;102,10.12
38;109,8.88
51;137,11.26
53;109,9.61
69;109,9.28
70;109,8.86

192;12
6,7,11,151,328,395,
0;176,21.70
1;176,12.19
3;176,19.69
6;176,18.86
8;183,14.78
33;176,15.03
34;176,17.46
36;183,10.82
38;183,14.90
53;176,15.52
69;176,14.98
70;176,14.31

193;9
5,6,7,151,320,321,322,323,324,328,395,
0;182,22.44
1;182,12.60
6;182,19.51
8;189,15.27
33;182,15.54
34;189,18.75
35;189,10.06
36;189,11.18
69;182,15.49

194;10
5,6,7,151,321,322,323,324,328,395,
0;175,21.58
1;175,12.12
6;175,18.76
8;182,14.70
33;175,14.94
34;182,18.06
35;182,9.69
36;182,10.76
38;182,14.82
69;175,14.89

195;12
5,6,7,151,328,395,
0;161,19.85
1;161,11.15
3;161,18.01
6;161,17.26
8;168,13.57
33;161,13.75
34;168,16.67
35;168,8.95
36;168,9.93
38;168,13.68
69;161,13.70
70;161,13.09

196;11
5,6,7,151,324,328,395,
0;165,20.35
1;165,11.43
3;165,18.46
6;165,17.68
8;172,13.89
33;165,14.09
34;172,17.06
35;172,9.16
36;172,10.17
38;172,14.01
69;165,14.04

197;13
6,7,151,328,395,
0;143,17.63
1;143,9.90
3;143,16.00
6;143,15.33
8;150,12.12
33;143,12.21
34;150,14.88
35;150,7.99
36;150,8.87
38;150,12.21
53;143,12.61
69;143,12.17
70;143,11.63

198;9
5,6,7,11,320,321,322,323,324,328,
0;139,17.14
1;139,9.63
6;139,14.90
8;139,11.23
33;139,11.87
34;132,13.10
36;139,8.22
51;167,13.72
69;139,11.83

199;10
5,6,7,11,321,322,323,324,328,
0;132,16.28
1;132,9.14
6;132,14.15
8;132,10.66
33;132,11.27
34;125,12.40
36;132,7.81
38;132,10.75
51;160,13.15
69;132,11.23

200;12
5,6,7,11,328,
0;118,14.55
1;118,8.17
3;118,13.20
6;118,12.65
8;118,9.53
33;118,10.08
34;111,11.01
36;118,6.98
38;118,9.61
51;146,12.00
69;118,10.04
70;118,9.59

201;11
5,6,7,11,324,328,
0;122,15.04
1;122,8.45
3;122,13.65
6;122,13.08
8;122,9.85
33;122,10.42
34;115,11.41
36;122,7.21
38;122,9.93
51;150,12.33
69;122,10.38

202;13
6,7,11,328,
0;100,12.33
1;100,6.93
3;100,11.19
6;100,10.72
8;100,8.08
33;100,8.54
34;93,9.23
36;100,5.91
38;100,8.14
51;128,10.52
53;100,8.82
69;100,8.51
70;100,8.13

203;10
5,6,7,68,167,320,321,322,323,324,328,395,
0;190,23.43
1;190,13.16
5;190,17.15
6;190,20.36
8;188,15.19
33;190,16.23
34;194,19.25
45;186,18.56
67;190,18.52
69;190,16.17

204;12
5,6,7,68,320,321,322,323,324,328,
0;144,17.76
1;144,9.97
5;144,13.00
6;144,15.43
8;140,11.31
33;144,12.30
34;141,13.99
45;144,14.37
51;172,14.13
52;172,14.97
67;144,14.04
69;144,12.26

205;12
5,6,7,320,321,322,323,324,328,395,
0;147,18.13
1;147,10.18
5;147,13.27
6;147,15.76
8;154,12.44
33;147,12.55
34;154,15.28
35;154,8.20
36;154,9.11
45;143,14.27
67;147,14.33
69;147,12.51

206;14
5,6,7,320,321,322,323,324,328,
0;106,13.07
1;106,7.34
5;106,9.57
6;106,11.36
8;106,8.56
33;106,9.05
34;106,10.52
35;106,5.64
36;106,6.27
45;106,10.58
51;134,11.01
52;134,11.66
67;106,10.33
69;106,9.02

207;15
313,322,323,324,328,
2;39,3.03
7;39,2.97
23;39,4.48
24;39,5.55
32;39,6.07
55;39,16.39
56;39,15.42
57;39,13.45
58;39,14.61
59;39,13.18
60;39,11.30
61;39,13.78
62;39,14.89
66;39,5.14
68;39,14.18

208;11
5,6,7,68,167,321,322,323,324,328,395,
0;183,22.56
1;183,12.67
5;183,16.52
6;183,19.61
8;181,14.62
33;183,15.63
34;187,18.55
38;181,14.74
45;179,17.86
67;183,17.84
69;183,15.57

209;14
5,6,7,68,167,328,395,
0;169,20.84
1;169,11.70
2;176,13.66
3;169,18.90
5;169,15.25
6;169,18.11
8;167,13.49
33;169,14.43
34;173,17.16
38;167,13.60
45;165,16.47
67;169,16.47
69;169,14.38
70;169,13.74

210;13
5,6,7,68,167,324,328,395,
0;173,21.33
1;173,11.98
2;180,13.98
3;173,19.35
5;173,15.61
6;173,18.54
8;171,13.81
33;173,14.77
34;177,17.56
38;171,13.93
45;169,16.87
67;173,16.86
69;173,14.72

211;12
5,6,7,68,167,322,323,324,328,395,
0;176,21.70
1;176,12.19
2;183,14.21
5;176,15.88
6;176,18.86
8;174,14.05
33;176,15.03
34;180,17.86
38;174,14.17
45;172,17.17
67;176,17.15
69;176,14.98

212;15
6,7,68,167,328,395,
0;151,18.62
1;151,10.46
2;158,12.27
3;151,16.89
5;151,13.63
6;151,16.18
8;158,12.76
33;151,12.89
34;155,15.38
38;158,12.87
45;158,15.77
53;151,13.32
67;151,14.72
69;151,12.85
70;151,12.28

213;13
5,6,7,68,321,322,323,324,328,
0;137,16.89
1;137,9.49
5;137,12.36
6;137,14.68
8;133,10.74
33;137,11.70
34;134,13.29
38;133,10.83
45;137,13.67
51;165,13.56
52;165,14.36
67;137,13.35
69;137,11.66

214;13
5,6,7,321,322,323,324,328,395,
0;140,17.26
1;140,9.70
5;140,12.64
6;140,15.01
8;147,11.87
33;140,11.96
34;147,14.58
35;147,7.83
36;147,8.69
38;147,11.97
45;136,13.57
67;140,13.65
69;140,11.91

215;15
5,6,7,321,322,323,324,328,
0;99,12.21
1;99,6.86
5;99,8.94
6;99,10.61
8;99,8.00
33;99,8.45
34;99,9.82
35;99,5.27
36;99,5.85
38;99,8.06
45;99,9.88
51;127,10.44
52;127,11.05
67;99,9.65
69;99,8.43

216;17
321,322,323,324,328,
0;45,5.55
1;45,3.12
5;45,4.06
6;45,4.82
8;45,3.63
33;45,3.84
34;45,4.46
35;45,2.40
36;45,2.66
38;45,3.66
45;45,4.49
50;45,10.09
51;45,3.70
52;45,3.92
64;45,7.44
67;45,4.39
69;45,3.83

217;16
5,6,7,68,328,
0;123,15.17
1;123,8.52
2;123,9.55
3;123,13.76
5;123,11.10
6;123,13.18
8;119,9.61
33;123,10.50
34;120,11.90
38;119,9.69
45;123,12.28
51;151,12.41
52;151,13.14
67;123,11.99
69;123,10.47
70;123,10.00

218;15
5,6,7,68,324,328,
0;127,15.66
1;127,8.80
2;127,9.86
3;127,14.21
5;127,11.46
6;127,13.61
8;123,9.94
33;127,10.85
34;124,12.30
38;123,10.02
45;127,12.67
51;155,12.74
52;155,13.49
67;127,12.38
69;127,10.81

219;14
5,6,7,68,322,323,324,328,
0;130,16.03
1;130,9.00
2;130,10.09
5;130,11.73
6;130,13.93
8;126,10.18
33;130,11.10
34;127,12.60
38;126,10.26
45;130,12.97
51;158,12.98
52;158,13.75
67;130,12.67
69;130,11.06

220;17
6,7,68,328,
0;105,12.95
1;105,7.27
2;105,8.15
3;105,11.74
5;105,9.48
6;105,11.25
8;105,8.48
33;105,8.97
34;102,10.12
38;105,8.55
45;105,10.48
51;133,10.93
52;133,11.58
53;105,9.26
67;105,10.23
69;105,8.94
70;105,8.54

221;17
5,6,7,328,395,
0;126,15.54
1;126,8.73
2;133,10.33
3;126,14.09
5;126,11.37
6;126,13.50
8;133,10.74
22;126,21.14
33;126,10.76
34;133,13.19
35;133,7.08
36;133,7.87
38;133,10.83
45;122,12.18
67;126,12.28
69;126,10.72
70;126,10.24

222;16
5,6,7,324,328,395,
0;130,16.03
1;130,9.00
2;137,10.64
3;130,14.54
5;130,11.73
6;130,13.93
8;137,11.07
22;130,21.81
33;130,11.10
34;137,13.59
35;137,7.29
36;137,8.10
38;137,11.16
45;126,12.57
67;130,12.67
69;130,11.06

223;15
5,6,7,323,324,328,395,
0;132,16.28
1;132,9.14
2;139,10.79
5;132,11.91
6;132,14.15
8;139,11.23
22;132,22.15
33;132,11.27
34;139,13.79
35;139,7.40
36;139,8.22
38;139,11.32
45;128,12.77
67;132,12.87
69;132,11.23

224;14
5,6,7,322,323,324,328,395,
0;133,16.40
1;133,9.21
2;140,10.87
5;133,12.00
6;133,14.26
8;140,11.31
33;133,11.36
34;140,13.89
35;140,7.45
36;140,8.28
38;140,11.40
45;129,12.87
67;133,12.96
69;133,11.32

225;18
6,7,328,395,
0;108,13.32
1;108,7.48
2;115,8.93
3;108,12.08
5;108,9.75
6;108,11.58
8;115,9.29
22;108,18.12
33;108,9.22
34;115,11.41
35;115,6.12
36;115,6.80
38;115,9.36
45;115,11.48
53;108,9.52
67;108,10.53
69;108,9.19
70;108,8.78

226;19
5,6,7,328,
0;85,10.48
1;85,5.89
2;85,6.60
3;85,9.51
5;85,7.67
6;85,9.11
8;85,6.87
22;85,14.26
33;85,7.26
34;85,8.43
35;85,4.53
36;85,5.03
38;85,6.92
45;85,8.48
51;113,9.29
52;113,9.83
67;85,8.28
69;85,7.23
70;85,6.91

227;18
5,6,7,324,328,
0;89,10.97
1;89,6.16
2;89,6.91
3;89,9.96
5;89,8.03
6;89,9.54
8;89,7.19
22;89,14.93
33;89,7.60
34;89,8.83
35;89,4.74
36;89,5.26
38;89,7.25
45;89,8.88
51;117,9.61
52;117,10.18
67;89,8.67
69;89,7.57

228;17
5,6,7,323,324,328,
0;91,11.22
1;91,6.30
2;91,7.07
5;91,8.21
6;91,9.75
8;91,7.35
22;91,15.27
33;91,7.77
34;91,9.03
35;91,4.85
36;91,5.38
38;91,7.41
45;91,9.08
51;119,9.78
52;119,10.36
67;91,8.87
69;91,7.74

229;16
5,6,7,322,323,324,328,
0;92,11.34
1;92,6.37
2;92,7.14
5;92,8.30
6;92,9.86
8;92,7.43
33;92,7.86
34;92,9.13
35;92,4.90
36;92,5.44
38;92,7.49
45;92,9.18
51;120,9.86
52;120,10.44
67;92,8.97
69;92,7.83

230;20
6,7,328,
0;67,8.26
1;67,4.64
2;67,5.20
3;67,7.49
5;67,6.05
6;67,7.18
8;67,5.41
22;67,11.24
33;67,5.72
34;67,6.65
35;67,3.57
36;67,3.96
38;67,5.46
45;67,6.69
51;95,7.81
52;95,8.27
53;67,5.91
67;67,6.53
69;67,5.70
70;67,5.45

231;32
322,323,324,328,
0;38,4.69
1;38,2.63
2;38,2.95
5;38,3.43
6;38,4.07
7;38,2.89
8;38,3.07
23;38,4.36
24;38,5.41
32;38,5.92
33;38,3.25
34;38,3.77
35;38,2.02
36;38,2.25
38;38,3.09
45;38,3.79
50;38,8.52
51;38,3.12
52;38,3.31
55;38,15.97
56;38,15.02
57;38,13.10
58;38,14.23
59;38,12.84
60;38,11.01
61;38,13.43
62;38,14.50
64;38,6.28
66;38,5.01
67;38,3.70
68;38,13.82
69;38,3.23

232;33
323,324,328,
0;37,4.56
1;37,2.56
2;37,2.87
5;37,3.34
6;37,3.97
7;37,2.82
8;37,2.99
22;37,6.21
23;37,4.25
24;37,5.26
32;37,5.76
33;37,3.16
34;37,3.67
35;37,1.97
36;37,2.19
38;37,3.01
45;37,3.69
50;37,8.30
51;37,3.04
52;37,3.22
55;37,15.55
56;37,14.62
57;37,12.76
58;37,13.86
59;37,12.50
60;37,10.72
61;37,13.07
62;37,14.12
64;37,6.12
66;37,4.87
67;37,3.61
68;37,13.45
69;37,3.15

233;35
324,328,
0;35,4.32
1;35,2.42
2;35,2.72
3;35,3.91
4;35,4.45
5;35,3.16
6;35,3.75
7;35,2.66
8;35,2.83
22;35,5.87
23;35,4.02
24;35,4.98
32;35,5.45
33;35,2.99
34;35,3.47
35;35,1.86
36;35,2.07
38;35,2.85
45;35,3.49
50;35,7.85
51;35,2.88
52;35,3.05
55;35,14.71
56;35,13.83
57;35,12.07
58;35,13.11
59;35,11.82
60;35,10.14
61;35,12.37
62;35,13.36
64;35,5.79
66;35,4.61
67;35,3.41
68;35,12.73
69;35,2.98

234;43
328,
0;31,3.82
1;31,2.15
2;31,2.41
3;31,3.47
4;31,3.94
5;31,2.80
6;31,3.32
7;31,2.36
8;31,2.50
22;31,5.20
23;31,3.56
24;31,4.41
29;31,11.19
32;31,4.83
33;31,2.65
34;31,3.08
35;31,1.65
36;31,1.83
37;31,6.18
38;31,2.52
39;31,5.59
44;31,3.71
45;31,3.09
48;31,2.12
50;31,6.95
51;31,2.55
52;31,2.70
53;31,2.73
55;31,13.03
56;31,12.25
57;31,10.69
58;31,11.61
59;31,10.47
60;31,8.99
61;31,10.95
62;31,11.83
63;31,5.42
64;31,5.12
66;31,4.08
67;31,3.02
68;31,11.27
69;31,2.64
70;31,2.52

